%YAML 1.1
%TAG !u! tag:unity3d.com,2011:
--- !u!74 &7400000
AnimationClip:
  m_ObjectHideFlags: 0
  m_PrefabParentObject: {fileID: 0}
  m_PrefabInternal: {fileID: 0}
  m_Name: PopIn
  serializedVersion: 4
  m_AnimationType: 2
  m_Compressed: 0
  m_UseHighQualityCurve: 1
  m_RotationCurves: []
  m_CompressedRotationCurves: []
  m_PositionCurves: []
  m_ScaleCurves:
  - curve:
      serializedVersion: 2
      m_Curve:
      - time: 0
        value: {x: 1, y: 1, z: 1}
        inSlope: {x: -.799999952, y: -1.20000005, z: 0}
        outSlope: {x: -.799999952, y: -1.20000005, z: 0}
        tangentMode: 1819045746
      - time: .25
        value: {x: .800000012, y: .699999988, z: 1}
        inSlope: {x: -.799999952, y: -1.20000005, z: 0}
        outSlope: {x: -.799999952, y: -1.20000005, z: 0}
        tangentMode: 10
      m_PreInfinity: 2
      m_PostInfinity: 2
    path: Hunger/Hunger
  - curve:
      serializedVersion: 2
      m_Curve:
      - time: 0
        value: {x: 1, y: 1, z: 1}
        inSlope: {x: -.799999952, y: -1.20000005, z: 0}
        outSlope: {x: -.799999952, y: -1.20000005, z: 0}
        tangentMode: 809022544
      - time: .25
        value: {x: .800000012, y: .699999988, z: 1}
        inSlope: {x: -.799999952, y: -1.20000005, z: 0}
        outSlope: {x: -.799999952, y: -1.20000005, z: 0}
        tangentMode: 10
      m_PreInfinity: 2
      m_PostInfinity: 2
    path: Sleep/Sleep
  - curve:
      serializedVersion: 2
      m_Curve:
      - time: 0
        value: {x: 1, y: 1, z: 1}
        inSlope: {x: -.799999952, y: -1.20000005, z: 0}
        outSlope: {x: -.799999952, y: -1.20000005, z: 0}
        tangentMode: 0
      - time: .25
        value: {x: .800000012, y: .699999988, z: 1}
        inSlope: {x: -.799999952, y: -1.20000005, z: 0}
        outSlope: {x: -.799999952, y: -1.20000005, z: 0}
        tangentMode: 0
      m_PreInfinity: 2
      m_PostInfinity: 2
    path: Alko/Alko
  - curve:
      serializedVersion: 2
      m_Curve:
      - time: 0
        value: {x: 1, y: 1, z: 1}
        inSlope: {x: -.799999952, y: -1.20000005, z: 0}
        outSlope: {x: -.799999952, y: -1.20000005, z: 0}
        tangentMode: 889469132
      - time: .25
        value: {x: .800000012, y: .699999988, z: 1}
        inSlope: {x: -.799999952, y: -1.20000005, z: 0}
        outSlope: {x: -.799999952, y: -1.20000005, z: 0}
        tangentMode: 1065353216
      m_PreInfinity: 2
      m_PostInfinity: 2
    path: Study/Study
  - curve:
      serializedVersion: 2
      m_Curve:
      - time: 0
        value: {x: 1, y: .5, z: 1}
        inSlope: {x: 0, y: 2, z: 0}
        outSlope: {x: 0, y: 2, z: 0}
        tangentMode: 884019960
      - time: .25
        value: {x: 1, y: 1, z: 1}
        inSlope: {x: 0, y: 2, z: 0}
        outSlope: {x: 0, y: 2, z: 0}
        tangentMode: 1065353216
      m_PreInfinity: 2
      m_PostInfinity: 2
    path: Hunger/Panel/Text
  m_FloatCurves:
  - curve:
      serializedVersion: 2
      m_Curve:
      - time: 0
        value: 0
        inSlope: -.0399780273
        outSlope: -.0399780273
        tangentMode: 10
      - time: .25
        value: -.00999450684
        inSlope: -.0399780273
        outSlope: -.0399780273
        tangentMode: 10
      m_PreInfinity: 2
      m_PostInfinity: 2
    attribute: m_AnchoredPosition.y
    path: 
    classID: 224
    script: {fileID: 0}
  - curve:
      serializedVersion: 2
      m_Curve:
      - time: 0
        value: -7.62939999e-06
        inSlope: -.0799255371
        outSlope: -.0799255371
        tangentMode: 10
      - time: .25
        value: -.0199890137
        inSlope: -.0799255371
        outSlope: -.0799255371
        tangentMode: 10
      m_PreInfinity: 2
      m_PostInfinity: 2
    attribute: m_SizeDelta.y
    path: 
    classID: 224
    script: {fileID: 0}
  - curve:
      serializedVersion: 2
      m_Curve:
      - time: 0
        value: .171000004
        inSlope: 3.31599998
        outSlope: 3.31599998
        tangentMode: 10
      - time: .25
        value: 1
        inSlope: 3.31599998
        outSlope: 3.31599998
        tangentMode: 10
      m_PreInfinity: 2
      m_PostInfinity: 2
    attribute: m_AnchorMax.y
    path: 
    classID: 224
    script: {fileID: 0}
  - curve:
      serializedVersion: 2
      m_Curve:
      - time: 0
        value: 1
        inSlope: 0
        outSlope: 0
        tangentMode: 10
      - time: .25
        value: 1
        inSlope: 0
        outSlope: 0
        tangentMode: 10
      m_PreInfinity: 2
      m_PostInfinity: 2
    attribute: m_AnchorMax.x
    path: 
    classID: 224
    script: {fileID: 0}
  - curve:
      serializedVersion: 2
      m_Curve:
      - time: 0
        value: 0
        inSlope: 0
        outSlope: 0
        tangentMode: 10
      - time: .25
        value: 0
        inSlope: 0
        outSlope: 0
        tangentMode: 10
      m_PreInfinity: 2
      m_PostInfinity: 2
    attribute: m_AnchoredPosition.x
    path: 
    classID: 224
    script: {fileID: 0}
  - curve:
      serializedVersion: 2
      m_Curve:
      - time: 0
        value: 0
        inSlope: 0
        outSlope: 0
        tangentMode: 10
      - time: .25
        value: 0
        inSlope: 0
        outSlope: 0
        tangentMode: 10
      m_PreInfinity: 2
      m_PostInfinity: 2
    attribute: m_SizeDelta.x
    path: 
    classID: 224
    script: {fileID: 0}
  - curve:
      serializedVersion: 2
      m_Curve:
      - time: 0
        value: 1
        inSlope: 0
        outSlope: 0
        tangentMode: 10
      - time: .25
        value: 1
        inSlope: 0
        outSlope: 0
        tangentMode: 10
      m_PreInfinity: 2
      m_PostInfinity: 2
    attribute: m_Color.r
    path: 
    classID: 114
    script: {fileID: -765806418, guid: f5f67c52d1564df4a8936ccd202a3bd8, type: 3}
  - curve:
      serializedVersion: 2
      m_Curve:
      - time: 0
        value: 1
        inSlope: 0
        outSlope: 0
        tangentMode: 10
      - time: .25
        value: 1
        inSlope: 0
        outSlope: 0
        tangentMode: 10
      m_PreInfinity: 2
      m_PostInfinity: 2
    attribute: m_Color.g
    path: 
    classID: 114
    script: {fileID: -765806418, guid: f5f67c52d1564df4a8936ccd202a3bd8, type: 3}
  - curve:
      serializedVersion: 2
      m_Curve:
      - time: 0
        value: 1
        inSlope: 0
        outSlope: 0
        tangentMode: 10
      - time: .25
        value: 1
        inSlope: 0
        outSlope: 0
        tangentMode: 10
      m_PreInfinity: 2
      m_PostInfinity: 2
    attribute: m_Color.b
    path: 
    classID: 114
    script: {fileID: -765806418, guid: f5f67c52d1564df4a8936ccd202a3bd8, type: 3}
  - curve:
      serializedVersion: 2
      m_Curve:
      - time: 0
        value: 0
        inSlope: 2.90196085
        outSlope: 2.90196085
        tangentMode: 10
      - time: .25
        value: .725490212
        inSlope: 2.90196085
        outSlope: 2.90196085
        tangentMode: 10
      m_PreInfinity: 2
      m_PostInfinity: 2
    attribute: m_Color.a
    path: 
    classID: 114
    script: {fileID: -765806418, guid: f5f67c52d1564df4a8936ccd202a3bd8, type: 3}
  - curve:
      serializedVersion: 2
      m_Curve:
      - time: 0
        value: 100
        inSlope: 400
        outSlope: 400
        tangentMode: 10
      - time: .25
        value: 200
        inSlope: 400
        outSlope: 400
        tangentMode: 10
      m_PreInfinity: 2
      m_PostInfinity: 2
    attribute: m_CellSize.x
    path: Hunger
    classID: 114
    script: {fileID: -2095666955, guid: f5f67c52d1564df4a8936ccd202a3bd8, type: 3}
  - curve:
      serializedVersion: 2
      m_Curve:
      - time: 0
        value: 100
        inSlope: 1600
        outSlope: 1600
        tangentMode: 10
      - time: .25
        value: 500
        inSlope: 1600
        outSlope: 1600
        tangentMode: 10
      m_PreInfinity: 2
      m_PostInfinity: 2
    attribute: m_CellSize.x
    path: 
    classID: 114
    script: {fileID: -2095666955, guid: f5f67c52d1564df4a8936ccd202a3bd8, type: 3}
  - curve:
      serializedVersion: 2
      m_Curve:
      - time: 0
        value: 100
        inSlope: 400
        outSlope: 400
        tangentMode: 10
      - time: .25
        value: 200
        inSlope: 400
        outSlope: 400
        tangentMode: 10
      m_PreInfinity: 2
      m_PostInfinity: 2
    attribute: m_CellSize.y
    path: 
    classID: 114
    script: {fileID: -2095666955, guid: f5f67c52d1564df4a8936ccd202a3bd8, type: 3}
  - curve:
      serializedVersion: 2
      m_Curve:
      - time: 0
        value: 5
        inSlope: -20
        outSlope: -20
        tangentMode: 10
      - time: .25
        value: 0
        inSlope: -20
        outSlope: -20
        tangentMode: 10
      m_PreInfinity: 2
      m_PostInfinity: 2
    attribute: m_Spacing.x
    path: Hunger
    classID: 114
    script: {fileID: -2095666955, guid: f5f67c52d1564df4a8936ccd202a3bd8, type: 3}
  - curve:
      serializedVersion: 2
      m_Curve:
      - time: 0
        value: 100
        inSlope: 400
        outSlope: 400
        tangentMode: 10
      - time: .25
        value: 200
        inSlope: 400
        outSlope: 400
        tangentMode: 10
      m_PreInfinity: 2
      m_PostInfinity: 2
    attribute: m_CellSize.y
    path: Hunger
    classID: 114
    script: {fileID: -2095666955, guid: f5f67c52d1564df4a8936ccd202a3bd8, type: 3}
  - curve:
      serializedVersion: 2
      m_Curve:
      - time: 0
        value: 60
        inSlope: 560
        outSlope: 560
        tangentMode: 10
      - time: .25
        value: 200
        inSlope: 560
        outSlope: 560
        tangentMode: 10
      m_PreInfinity: 2
      m_PostInfinity: 2
    attribute: m_CellSize.x
    path: Hunger/Panel
    classID: 114
    script: {fileID: -2095666955, guid: f5f67c52d1564df4a8936ccd202a3bd8, type: 3}
  - curve:
      serializedVersion: 2
      m_Curve:
      - time: 0
        value: 15
        inSlope: 300
        outSlope: 300
        tangentMode: 10
      - time: .25
        value: 90
        inSlope: 300
        outSlope: 300
        tangentMode: 10
      m_PreInfinity: 2
      m_PostInfinity: 2
    attribute: m_CellSize.y
    path: Hunger/Panel
    classID: 114
    script: {fileID: -2095666955, guid: f5f67c52d1564df4a8936ccd202a3bd8, type: 3}
  - curve:
      serializedVersion: 2
      m_Curve:
      - time: 0
        value: 0
        inSlope: 2.90196085
        outSlope: 2.90196085
        tangentMode: 10
      - time: .25
        value: .725490212
        inSlope: 2.90196085
        outSlope: 2.90196085
        tangentMode: 10
      m_PreInfinity: 2
      m_PostInfinity: 2
    attribute: m_Color.a
    path: Hunger
    classID: 114
    script: {fileID: -765806418, guid: f5f67c52d1564df4a8936ccd202a3bd8, type: 3}
  - curve:
      serializedVersion: 2
      m_Curve:
      - time: 0
        value: 100
        inSlope: 400
        outSlope: 400
        tangentMode: 10
      - time: .25
        value: 200
        inSlope: 400
        outSlope: 400
        tangentMode: 10
      m_PreInfinity: 2
      m_PostInfinity: 2
    attribute: m_CellSize.x
    path: Sleep
    classID: 114
    script: {fileID: -2095666955, guid: f5f67c52d1564df4a8936ccd202a3bd8, type: 3}
  - curve:
      serializedVersion: 2
      m_Curve:
      - time: 0
        value: 100
        inSlope: 400
        outSlope: 400
        tangentMode: 10
      - time: .25
        value: 200
        inSlope: 400
        outSlope: 400
        tangentMode: 10
      m_PreInfinity: 2
      m_PostInfinity: 2
    attribute: m_CellSize.y
    path: Sleep
    classID: 114
    script: {fileID: -2095666955, guid: f5f67c52d1564df4a8936ccd202a3bd8, type: 3}
  - curve:
      serializedVersion: 2
      m_Curve:
      - time: 0
        value: 5
        inSlope: -20
        outSlope: -20
        tangentMode: 10
      - time: .25
        value: 0
        inSlope: -20
        outSlope: -20
        tangentMode: 10
      m_PreInfinity: 2
      m_PostInfinity: 2
    attribute: m_Spacing.x
    path: Sleep
    classID: 114
    script: {fileID: -2095666955, guid: f5f67c52d1564df4a8936ccd202a3bd8, type: 3}
  - curve:
      serializedVersion: 2
      m_Curve:
      - time: 0
        value: 60
        inSlope: 560
        outSlope: 560
        tangentMode: 10
      - time: .25
        value: 200
        inSlope: 560
        outSlope: 560
        tangentMode: 10
      m_PreInfinity: 2
      m_PostInfinity: 2
    attribute: m_CellSize.x
    path: Sleep/Panel
    classID: 114
    script: {fileID: -2095666955, guid: f5f67c52d1564df4a8936ccd202a3bd8, type: 3}
  - curve:
      serializedVersion: 2
      m_Curve:
      - time: 0
        value: 15
        inSlope: 300
        outSlope: 300
        tangentMode: 10
      - time: .25
        value: 90
        inSlope: 300
        outSlope: 300
        tangentMode: 10
      m_PreInfinity: 2
      m_PostInfinity: 2
    attribute: m_CellSize.y
    path: Sleep/Panel
    classID: 114
    script: {fileID: -2095666955, guid: f5f67c52d1564df4a8936ccd202a3bd8, type: 3}
  - curve:
      serializedVersion: 2
      m_Curve:
      - time: 0
        value: 0
        inSlope: 2.90196085
        outSlope: 2.90196085
        tangentMode: 10
      - time: .25
        value: .725490212
        inSlope: 2.90196085
        outSlope: 2.90196085
        tangentMode: 10
      m_PreInfinity: 2
      m_PostInfinity: 2
    attribute: m_Color.a
    path: Sleep
    classID: 114
    script: {fileID: -765806418, guid: f5f67c52d1564df4a8936ccd202a3bd8, type: 3}
  - curve:
      serializedVersion: 2
      m_Curve:
      - time: 0
        value: 100
        inSlope: 400
        outSlope: 400
        tangentMode: 10
      - time: .25
        value: 200
        inSlope: 400
        outSlope: 400
        tangentMode: 10
      m_PreInfinity: 2
      m_PostInfinity: 2
    attribute: m_CellSize.x
    path: Alko
    classID: 114
    script: {fileID: -2095666955, guid: f5f67c52d1564df4a8936ccd202a3bd8, type: 3}
  - curve:
      serializedVersion: 2
      m_Curve:
      - time: 0
        value: 100
        inSlope: 400
        outSlope: 400
        tangentMode: 10
      - time: .25
        value: 200
        inSlope: 400
        outSlope: 400
        tangentMode: 10
      m_PreInfinity: 2
      m_PostInfinity: 2
    attribute: m_CellSize.y
    path: Alko
    classID: 114
    script: {fileID: -2095666955, guid: f5f67c52d1564df4a8936ccd202a3bd8, type: 3}
  - curve:
      serializedVersion: 2
      m_Curve:
      - time: 0
        value: 5
        inSlope: -20
        outSlope: -20
        tangentMode: 10
      - time: .25
        value: 0
        inSlope: -20
        outSlope: -20
        tangentMode: 10
      m_PreInfinity: 2
      m_PostInfinity: 2
    attribute: m_Spacing.x
    path: Alko
    classID: 114
    script: {fileID: -2095666955, guid: f5f67c52d1564df4a8936ccd202a3bd8, type: 3}
  - curve:
      serializedVersion: 2
      m_Curve:
      - time: 0
        value: 60
        inSlope: 560
        outSlope: 560
        tangentMode: 10
      - time: .25
        value: 200
        inSlope: 560
        outSlope: 560
        tangentMode: 10
      m_PreInfinity: 2
      m_PostInfinity: 2
    attribute: m_CellSize.x
    path: Alko/Panel
    classID: 114
    script: {fileID: -2095666955, guid: f5f67c52d1564df4a8936ccd202a3bd8, type: 3}
  - curve:
      serializedVersion: 2
      m_Curve:
      - time: 0
        value: 15
        inSlope: 300
        outSlope: 300
        tangentMode: 10
      - time: .25
        value: 90
        inSlope: 300
        outSlope: 300
        tangentMode: 10
      m_PreInfinity: 2
      m_PostInfinity: 2
    attribute: m_CellSize.y
    path: Alko/Panel
    classID: 114
    script: {fileID: -2095666955, guid: f5f67c52d1564df4a8936ccd202a3bd8, type: 3}
  - curve:
      serializedVersion: 2
      m_Curve:
      - time: 0
        value: 0
        inSlope: 2.90196085
        outSlope: 2.90196085
        tangentMode: 10
      - time: .25
        value: .725490212
        inSlope: 2.90196085
        outSlope: 2.90196085
        tangentMode: 10
      m_PreInfinity: 2
      m_PostInfinity: 2
    attribute: m_Color.a
    path: Alko
    classID: 114
    script: {fileID: -765806418, guid: f5f67c52d1564df4a8936ccd202a3bd8, type: 3}
  - curve:
      serializedVersion: 2
      m_Curve:
      - time: 0
        value: 100
        inSlope: 400
        outSlope: 400
        tangentMode: 10
      - time: .25
        value: 200
        inSlope: 400
        outSlope: 400
        tangentMode: 10
      m_PreInfinity: 2
      m_PostInfinity: 2
    attribute: m_CellSize.x
    path: Study
    classID: 114
    script: {fileID: -2095666955, guid: f5f67c52d1564df4a8936ccd202a3bd8, type: 3}
  - curve:
      serializedVersion: 2
      m_Curve:
      - time: 0
        value: 100
        inSlope: 400
        outSlope: 400
        tangentMode: 10
      - time: .25
        value: 200
        inSlope: 400
        outSlope: 400
        tangentMode: 10
      m_PreInfinity: 2
      m_PostInfinity: 2
    attribute: m_CellSize.y
    path: Study
    classID: 114
    script: {fileID: -2095666955, guid: f5f67c52d1564df4a8936ccd202a3bd8, type: 3}
  - curve:
      serializedVersion: 2
      m_Curve:
      - time: 0
        value: 5
        inSlope: -20
        outSlope: -20
        tangentMode: 10
      - time: .25
        value: 0
        inSlope: -20
        outSlope: -20
        tangentMode: 10
      m_PreInfinity: 2
      m_PostInfinity: 2
    attribute: m_Spacing.x
    path: Study
    classID: 114
    script: {fileID: -2095666955, guid: f5f67c52d1564df4a8936ccd202a3bd8, type: 3}
  - curve:
      serializedVersion: 2
      m_Curve:
      - time: 0
        value: 60
        inSlope: 560
        outSlope: 560
        tangentMode: 10
      - time: .25
        value: 200
        inSlope: 560
        outSlope: 560
        tangentMode: 10
      m_PreInfinity: 2
      m_PostInfinity: 2
    attribute: m_CellSize.x
    path: Study/Panel
    classID: 114
    script: {fileID: -2095666955, guid: f5f67c52d1564df4a8936ccd202a3bd8, type: 3}
  - curve:
      serializedVersion: 2
      m_Curve:
      - time: 0
        value: 15
        inSlope: 300
        outSlope: 300
        tangentMode: 10
      - time: .25
        value: 90
        inSlope: 300
        outSlope: 300
        tangentMode: 10
      m_PreInfinity: 2
      m_PostInfinity: 2
    attribute: m_CellSize.y
    path: Study/Panel
    classID: 114
    script: {fileID: -2095666955, guid: f5f67c52d1564df4a8936ccd202a3bd8, type: 3}
  - curve:
      serializedVersion: 2
      m_Curve:
      - time: 0
        value: 0
        inSlope: 0
        outSlope: 0
        tangentMode: 10
      - time: .25
        value: 0
        inSlope: 0
        outSlope: 0
        tangentMode: 10
      m_PreInfinity: 2
      m_PostInfinity: 2
    attribute: m_Color.a
    path: Study/Panel
    classID: 114
    script: {fileID: -765806418, guid: f5f67c52d1564df4a8936ccd202a3bd8, type: 3}
  - curve:
      serializedVersion: 2
      m_Curve:
      - time: 0
        value: 0
        inSlope: Infinity
        outSlope: Infinity
        tangentMode: 31
      - time: .25
        value: 1
        inSlope: Infinity
        outSlope: Infinity
        tangentMode: 31
      m_PreInfinity: 2
      m_PostInfinity: 2
    attribute: m_Enabled
    path: Hunger/Panel/Text
    classID: 114
    script: {fileID: 708705254, guid: f5f67c52d1564df4a8936ccd202a3bd8, type: 3}
  - curve:
      serializedVersion: 2
      m_Curve:
      - time: 0
        value: 6
        inSlope: 56
        outSlope: 56
        tangentMode: 10
      - time: .25
        value: 20
        inSlope: 56
        outSlope: 56
        tangentMode: 10
      m_PreInfinity: 2
      m_PostInfinity: 2
    attribute: m_CellSize.x
    path: Hunger/Panel/Panel
    classID: 114
    script: {fileID: -2095666955, guid: f5f67c52d1564df4a8936ccd202a3bd8, type: 3}
  - curve:
      serializedVersion: 2
      m_Curve:
      - time: 0
        value: 15
        inSlope: 300
        outSlope: 300
        tangentMode: 10
      - time: .25
        value: 90
        inSlope: 300
        outSlope: 300
        tangentMode: 10
      m_PreInfinity: 2
      m_PostInfinity: 2
    attribute: m_CellSize.y
    path: Hunger/Panel/Panel
    classID: 114
    script: {fileID: -2095666955, guid: f5f67c52d1564df4a8936ccd202a3bd8, type: 3}
  - curve:
      serializedVersion: 2
      m_Curve:
      - time: 0
        value: 0
        inSlope: 4
        outSlope: 4
        tangentMode: 10
      - time: .25
        value: 1
        inSlope: 4
        outSlope: 4
        tangentMode: 10
      m_PreInfinity: 2
      m_PostInfinity: 2
    attribute: m_Alpha
    path: Hunger/Panel/Panel
    classID: 225
    script: {fileID: 0}
  - curve:
      serializedVersion: 2
      m_Curve:
      - time: 0
        value: 0
        inSlope: Infinity
        outSlope: Infinity
        tangentMode: 31
      - time: .25
        value: 1
        inSlope: Infinity
        outSlope: Infinity
        tangentMode: 31
      m_PreInfinity: 2
      m_PostInfinity: 2
    attribute: m_Enabled
    path: Sleep/Panel/Text
    classID: 114
    script: {fileID: 708705254, guid: f5f67c52d1564df4a8936ccd202a3bd8, type: 3}
  - curve:
      serializedVersion: 2
      m_Curve:
      - time: 0
        value: 6
        inSlope: 56
        outSlope: 56
        tangentMode: 10
      - time: .25
        value: 20
        inSlope: 56
        outSlope: 56
        tangentMode: 10
      m_PreInfinity: 2
      m_PostInfinity: 2
    attribute: m_CellSize.x
    path: Sleep/Panel/Panel
    classID: 114
    script: {fileID: -2095666955, guid: f5f67c52d1564df4a8936ccd202a3bd8, type: 3}
  - curve:
      serializedVersion: 2
      m_Curve:
      - time: 0
        value: 15
        inSlope: 300
        outSlope: 300
        tangentMode: 10
      - time: .25
        value: 90
        inSlope: 300
        outSlope: 300
        tangentMode: 10
      m_PreInfinity: 2
      m_PostInfinity: 2
    attribute: m_CellSize.y
    path: Sleep/Panel/Panel
    classID: 114
    script: {fileID: -2095666955, guid: f5f67c52d1564df4a8936ccd202a3bd8, type: 3}
  - curve:
      serializedVersion: 2
      m_Curve:
      - time: 0
        value: 0
        inSlope: 4
        outSlope: 4
        tangentMode: 10
      - time: .25
        value: 1
        inSlope: 4
        outSlope: 4
        tangentMode: 10
      m_PreInfinity: 2
      m_PostInfinity: 2
    attribute: m_Alpha
    path: Sleep/Panel/Panel
    classID: 225
    script: {fileID: 0}
  - curve:
      serializedVersion: 2
      m_Curve:
      - time: 0
        value: 0
        inSlope: Infinity
        outSlope: Infinity
        tangentMode: 31
      - time: .25
        value: 1
        inSlope: Infinity
        outSlope: Infinity
        tangentMode: 31
      m_PreInfinity: 2
      m_PostInfinity: 2
    attribute: m_Enabled
    path: Alko/Panel/Text
    classID: 114
    script: {fileID: 708705254, guid: f5f67c52d1564df4a8936ccd202a3bd8, type: 3}
  - curve:
      serializedVersion: 2
      m_Curve:
      - time: 0
        value: 6
        inSlope: 56
        outSlope: 56
        tangentMode: 10
      - time: .25
        value: 20
        inSlope: 56
        outSlope: 56
        tangentMode: 10
      m_PreInfinity: 2
      m_PostInfinity: 2
    attribute: m_CellSize.x
    path: Alko/Panel/Panel
    classID: 114
    script: {fileID: -2095666955, guid: f5f67c52d1564df4a8936ccd202a3bd8, type: 3}
  - curve:
      serializedVersion: 2
      m_Curve:
      - time: 0
        value: 15
        inSlope: 300
        outSlope: 300
        tangentMode: 10
      - time: .25
        value: 90
        inSlope: 300
        outSlope: 300
        tangentMode: 10
      m_PreInfinity: 2
      m_PostInfinity: 2
    attribute: m_CellSize.y
    path: Alko/Panel/Panel
    classID: 114
    script: {fileID: -2095666955, guid: f5f67c52d1564df4a8936ccd202a3bd8, type: 3}
  - curve:
      serializedVersion: 2
      m_Curve:
      - time: 0
        value: 0
        inSlope: 4
        outSlope: 4
        tangentMode: 10
      - time: .25
        value: 1
        inSlope: 4
        outSlope: 4
        tangentMode: 10
      m_PreInfinity: 2
      m_PostInfinity: 2
    attribute: m_Alpha
    path: Alko/Panel/Panel
    classID: 225
    script: {fileID: 0}
  - curve:
      serializedVersion: 2
      m_Curve:
      - time: 0
        value: 0
        inSlope: Infinity
        outSlope: Infinity
        tangentMode: 31
      - time: .25
        value: 1
        inSlope: Infinity
        outSlope: Infinity
        tangentMode: 31
      m_PreInfinity: 2
      m_PostInfinity: 2
    attribute: m_Enabled
    path: Study/Panel/Text
    classID: 114
    script: {fileID: 708705254, guid: f5f67c52d1564df4a8936ccd202a3bd8, type: 3}
  - curve:
      serializedVersion: 2
      m_Curve:
      - time: 0
        value: 6
        inSlope: 56
        outSlope: 56
        tangentMode: 10
      - time: .25
        value: 20
        inSlope: 56
        outSlope: 56
        tangentMode: 10
      m_PreInfinity: 2
      m_PostInfinity: 2
    attribute: m_CellSize.x
    path: Study/Panel/Panel
    classID: 114
    script: {fileID: -2095666955, guid: f5f67c52d1564df4a8936ccd202a3bd8, type: 3}
  - curve:
      serializedVersion: 2
      m_Curve:
      - time: 0
        value: 15
        inSlope: 300
        outSlope: 300
        tangentMode: 10
      - time: .25
        value: 90
        inSlope: 300
        outSlope: 300
        tangentMode: 10
      m_PreInfinity: 2
      m_PostInfinity: 2
    attribute: m_CellSize.y
    path: Study/Panel/Panel
    classID: 114
    script: {fileID: -2095666955, guid: f5f67c52d1564df4a8936ccd202a3bd8, type: 3}
  - curve:
      serializedVersion: 2
      m_Curve:
      - time: 0
        value: 0
        inSlope: 4
        outSlope: 4
        tangentMode: 10
      - time: .25
        value: 1
        inSlope: 4
        outSlope: 4
        tangentMode: 10
      m_PreInfinity: 2
      m_PostInfinity: 2
    attribute: m_Alpha
    path: Study/Panel/Panel
    classID: 225
    script: {fileID: 0}
  - curve:
      serializedVersion: 2
      m_Curve:
      - time: 0
        value: 0
        inSlope: 2.90196085
        outSlope: 2.90196085
        tangentMode: 10
      - time: .25
        value: .725490212
        inSlope: 2.90196085
        outSlope: 2.90196085
        tangentMode: 10
      m_PreInfinity: 2
      m_PostInfinity: 2
    attribute: m_Color.a
    path: Study
    classID: 114
    script: {fileID: -765806418, guid: f5f67c52d1564df4a8936ccd202a3bd8, type: 3}
  - curve:
      serializedVersion: 2
      m_Curve:
      - time: 0
        value: 1
        inSlope: 0
        outSlope: 0
        tangentMode: 10
      - time: .25
        value: 1
        inSlope: 0
        outSlope: 0
        tangentMode: 10
      m_PreInfinity: 2
      m_PostInfinity: 2
    attribute: m_FillAmount
    path: Hunger/Panel/Panel
    classID: 114
    script: {fileID: -765806418, guid: f5f67c52d1564df4a8936ccd202a3bd8, type: 3}
  - curve:
      serializedVersion: 2
      m_Curve:
      - time: 0
        value: 0
        inSlope: Infinity
        outSlope: Infinity
        tangentMode: 31
      - time: .25
        value: 0
        inSlope: Infinity
        outSlope: Infinity
        tangentMode: 31
      m_PreInfinity: 2
      m_PostInfinity: 2
    attribute: m_PreserveAspect
    path: Hunger/Panel/Panel
    classID: 114
    script: {fileID: -765806418, guid: f5f67c52d1564df4a8936ccd202a3bd8, type: 3}
  - curve:
      serializedVersion: 2
      m_Curve:
      - time: 0
        value: 1
        inSlope: Infinity
        outSlope: Infinity
        tangentMode: 31
      - time: .25
        value: 1
        inSlope: Infinity
        outSlope: Infinity
        tangentMode: 31
      m_PreInfinity: 2
      m_PostInfinity: 2
    attribute: m_FillCenter
    path: Hunger/Panel/Panel
    classID: 114
    script: {fileID: -765806418, guid: f5f67c52d1564df4a8936ccd202a3bd8, type: 3}
  m_PPtrCurves: []
  m_SampleRate: 60
  m_WrapMode: 0
  m_Bounds:
    m_Center: {x: 0, y: 0, z: 0}
    m_Extent: {x: 0, y: 0, z: 0}
  m_ClipBindingConstant:
    genericBindings:
    - path: 1176993341
      attribute: 3
      script: {fileID: 0}
      classID: 4
      customType: 0
      isPPtrCurve: 0
    - path: 3720214910
      attribute: 3
      script: {fileID: 0}
      classID: 4
      customType: 0
      isPPtrCurve: 0
    - path: 2722588898
      attribute: 3
      script: {fileID: 0}
      classID: 4
      customType: 0
      isPPtrCurve: 0
    - path: 4118440635
      attribute: 3
      script: {fileID: 0}
      classID: 4
      customType: 0
      isPPtrCurve: 0
    - path: 933995237
      attribute: 3
      script: {fileID: 0}
      classID: 4
      customType: 0
      isPPtrCurve: 0
    - path: 0
      attribute: 538195251
      script: {fileID: 0}
      classID: 224
      customType: 0
      isPPtrCurve: 0
    - path: 0
      attribute: 38095219
      script: {fileID: 0}
      classID: 224
      customType: 0
      isPPtrCurve: 0
    - path: 0
      attribute: 3600656472
      script: {fileID: 0}
      classID: 224
      customType: 0
      isPPtrCurve: 0
    - path: 0
      attribute: 304273561
      script: {fileID: -765806418, guid: f5f67c52d1564df4a8936ccd202a3bd8, type: 3}
      classID: 114
      customType: 0
      isPPtrCurve: 0
    - path: 1394316410
      attribute: 2402991922
      script: {fileID: -2095666955, guid: f5f67c52d1564df4a8936ccd202a3bd8, type: 3}
      classID: 114
      customType: 0
      isPPtrCurve: 0
    - path: 0
      attribute: 2402991922
      script: {fileID: -2095666955, guid: f5f67c52d1564df4a8936ccd202a3bd8, type: 3}
      classID: 114
      customType: 0
      isPPtrCurve: 0
    - path: 0
      attribute: 4164784036
      script: {fileID: -2095666955, guid: f5f67c52d1564df4a8936ccd202a3bd8, type: 3}
      classID: 114
      customType: 0
      isPPtrCurve: 0
    - path: 1394316410
      attribute: 2876037403
      script: {fileID: -2095666955, guid: f5f67c52d1564df4a8936ccd202a3bd8, type: 3}
      classID: 114
      customType: 0
      isPPtrCurve: 0
    - path: 1394316410
      attribute: 4164784036
      script: {fileID: -2095666955, guid: f5f67c52d1564df4a8936ccd202a3bd8, type: 3}
      classID: 114
      customType: 0
      isPPtrCurve: 0
    - path: 2242638422
      attribute: 2402991922
      script: {fileID: -2095666955, guid: f5f67c52d1564df4a8936ccd202a3bd8, type: 3}
      classID: 114
      customType: 0
      isPPtrCurve: 0
    - path: 2242638422
      attribute: 4164784036
      script: {fileID: -2095666955, guid: f5f67c52d1564df4a8936ccd202a3bd8, type: 3}
      classID: 114
      customType: 0
      isPPtrCurve: 0
    - path: 1394316410
      attribute: 304273561
      script: {fileID: -765806418, guid: f5f67c52d1564df4a8936ccd202a3bd8, type: 3}
      classID: 114
      customType: 0
      isPPtrCurve: 0
    - path: 3472027048
      attribute: 2402991922
      script: {fileID: -2095666955, guid: f5f67c52d1564df4a8936ccd202a3bd8, type: 3}
      classID: 114
      customType: 0
      isPPtrCurve: 0
    - path: 3472027048
      attribute: 4164784036
      script: {fileID: -2095666955, guid: f5f67c52d1564df4a8936ccd202a3bd8, type: 3}
      classID: 114
      customType: 0
      isPPtrCurve: 0
    - path: 3472027048
      attribute: 2876037403
      script: {fileID: -2095666955, guid: f5f67c52d1564df4a8936ccd202a3bd8, type: 3}
      classID: 114
      customType: 0
      isPPtrCurve: 0
    - path: 1881401565
      attribute: 2402991922
      script: {fileID: -2095666955, guid: f5f67c52d1564df4a8936ccd202a3bd8, type: 3}
      classID: 114
      customType: 0
      isPPtrCurve: 0
    - path: 1881401565
      attribute: 4164784036
      script: {fileID: -2095666955, guid: f5f67c52d1564df4a8936ccd202a3bd8, type: 3}
      classID: 114
      customType: 0
      isPPtrCurve: 0
    - path: 3472027048
      attribute: 304273561
      script: {fileID: -765806418, guid: f5f67c52d1564df4a8936ccd202a3bd8, type: 3}
      classID: 114
      customType: 0
      isPPtrCurve: 0
    - path: 405085349
      attribute: 2402991922
      script: {fileID: -2095666955, guid: f5f67c52d1564df4a8936ccd202a3bd8, type: 3}
      classID: 114
      customType: 0
      isPPtrCurve: 0
    - path: 405085349
      attribute: 4164784036
      script: {fileID: -2095666955, guid: f5f67c52d1564df4a8936ccd202a3bd8, type: 3}
      classID: 114
      customType: 0
      isPPtrCurve: 0
    - path: 405085349
      attribute: 2876037403
      script: {fileID: -2095666955, guid: f5f67c52d1564df4a8936ccd202a3bd8, type: 3}
      classID: 114
      customType: 0
      isPPtrCurve: 0
    - path: 2339261004
      attribute: 2402991922
      script: {fileID: -2095666955, guid: f5f67c52d1564df4a8936ccd202a3bd8, type: 3}
      classID: 114
      customType: 0
      isPPtrCurve: 0
    - path: 2339261004
      attribute: 4164784036
      script: {fileID: -2095666955, guid: f5f67c52d1564df4a8936ccd202a3bd8, type: 3}
      classID: 114
      customType: 0
      isPPtrCurve: 0
    - path: 405085349
      attribute: 304273561
      script: {fileID: -765806418, guid: f5f67c52d1564df4a8936ccd202a3bd8, type: 3}
      classID: 114
      customType: 0
      isPPtrCurve: 0
    - path: 666810445
      attribute: 2402991922
      script: {fileID: -2095666955, guid: f5f67c52d1564df4a8936ccd202a3bd8, type: 3}
      classID: 114
      customType: 0
      isPPtrCurve: 0
    - path: 666810445
      attribute: 4164784036
      script: {fileID: -2095666955, guid: f5f67c52d1564df4a8936ccd202a3bd8, type: 3}
      classID: 114
      customType: 0
      isPPtrCurve: 0
    - path: 666810445
      attribute: 2876037403
      script: {fileID: -2095666955, guid: f5f67c52d1564df4a8936ccd202a3bd8, type: 3}
      classID: 114
      customType: 0
      isPPtrCurve: 0
    - path: 2980589309
      attribute: 2402991922
      script: {fileID: -2095666955, guid: f5f67c52d1564df4a8936ccd202a3bd8, type: 3}
      classID: 114
      customType: 0
      isPPtrCurve: 0
    - path: 2980589309
      attribute: 4164784036
      script: {fileID: -2095666955, guid: f5f67c52d1564df4a8936ccd202a3bd8, type: 3}
      classID: 114
      customType: 0
      isPPtrCurve: 0
    - path: 933995237
      attribute: 3305885265
      script: {fileID: 708705254, guid: f5f67c52d1564df4a8936ccd202a3bd8, type: 3}
      classID: 114
      customType: 24
      isPPtrCurve: 0
    - path: 2009182958
      attribute: 2402991922
      script: {fileID: -2095666955, guid: f5f67c52d1564df4a8936ccd202a3bd8, type: 3}
      classID: 114
      customType: 0
      isPPtrCurve: 0
    - path: 2009182958
      attribute: 4164784036
      script: {fileID: -2095666955, guid: f5f67c52d1564df4a8936ccd202a3bd8, type: 3}
      classID: 114
      customType: 0
      isPPtrCurve: 0
    - path: 2009182958
      attribute: 1574349066
      script: {fileID: 0}
      classID: 225
      customType: 0
      isPPtrCurve: 0
    - path: 1221905245
      attribute: 3305885265
      script: {fileID: 708705254, guid: f5f67c52d1564df4a8936ccd202a3bd8, type: 3}
      classID: 114
      customType: 24
      isPPtrCurve: 0
    - path: 2986669625
      attribute: 2402991922
      script: {fileID: -2095666955, guid: f5f67c52d1564df4a8936ccd202a3bd8, type: 3}
      classID: 114
      customType: 0
      isPPtrCurve: 0
    - path: 2986669625
      attribute: 4164784036
      script: {fileID: -2095666955, guid: f5f67c52d1564df4a8936ccd202a3bd8, type: 3}
      classID: 114
      customType: 0
      isPPtrCurve: 0
    - path: 2986669625
      attribute: 1574349066
      script: {fileID: 0}
      classID: 225
      customType: 0
      isPPtrCurve: 0
    - path: 3436851862
      attribute: 3305885265
      script: {fileID: 708705254, guid: f5f67c52d1564df4a8936ccd202a3bd8, type: 3}
      classID: 114
      customType: 24
      isPPtrCurve: 0
    - path: 3191268344
      attribute: 2402991922
      script: {fileID: -2095666955, guid: f5f67c52d1564df4a8936ccd202a3bd8, type: 3}
      classID: 114
      customType: 0
      isPPtrCurve: 0
    - path: 3191268344
      attribute: 4164784036
      script: {fileID: -2095666955, guid: f5f67c52d1564df4a8936ccd202a3bd8, type: 3}
      classID: 114
      customType: 0
      isPPtrCurve: 0
    - path: 3191268344
      attribute: 1574349066
      script: {fileID: 0}
      classID: 225
      customType: 0
      isPPtrCurve: 0
    - path: 3853666285
      attribute: 3305885265
      script: {fileID: 708705254, guid: f5f67c52d1564df4a8936ccd202a3bd8, type: 3}
      classID: 114
      customType: 24
      isPPtrCurve: 0
    - path: 2043159353
      attribute: 2402991922
      script: {fileID: -2095666955, guid: f5f67c52d1564df4a8936ccd202a3bd8, type: 3}
      classID: 114
      customType: 0
      isPPtrCurve: 0
    - path: 2043159353
      attribute: 4164784036
      script: {fileID: -2095666955, guid: f5f67c52d1564df4a8936ccd202a3bd8, type: 3}
      classID: 114
      customType: 0
      isPPtrCurve: 0
    - path: 2043159353
      attribute: 1574349066
      script: {fileID: 0}
      classID: 225
      customType: 0
      isPPtrCurve: 0
    - path: 666810445
      attribute: 304273561
      script: {fileID: -765806418, guid: f5f67c52d1564df4a8936ccd202a3bd8, type: 3}
      classID: 114
      customType: 0
      isPPtrCurve: 0
    - path: 2009182958
      attribute: 821311086
      script: {fileID: -765806418, guid: f5f67c52d1564df4a8936ccd202a3bd8, type: 3}
      classID: 114
      customType: 0
      isPPtrCurve: 0
    - path: 2009182958
      attribute: 2026249895
      script: {fileID: -765806418, guid: f5f67c52d1564df4a8936ccd202a3bd8, type: 3}
      classID: 114
      customType: 0
      isPPtrCurve: 0
    - path: 0
      attribute: 2711263438
      script: {fileID: 0}
      classID: 224
      customType: 0
      isPPtrCurve: 0
    - path: 0
      attribute: 1460864421
      script: {fileID: 0}
      classID: 224
      customType: 0
      isPPtrCurve: 0
    - path: 0
      attribute: 1967290853
      script: {fileID: 0}
      classID: 224
      customType: 0
      isPPtrCurve: 0
    - path: 0
      attribute: 2526845255
      script: {fileID: -765806418, guid: f5f67c52d1564df4a8936ccd202a3bd8, type: 3}
      classID: 114
      customType: 0
      isPPtrCurve: 0
    - path: 0
      attribute: 4215373228
      script: {fileID: -765806418, guid: f5f67c52d1564df4a8936ccd202a3bd8, type: 3}
      classID: 114
      customType: 0
      isPPtrCurve: 0
    - path: 0
      attribute: 2334886179
      script: {fileID: -765806418, guid: f5f67c52d1564df4a8936ccd202a3bd8, type: 3}
      classID: 114
      customType: 0
      isPPtrCurve: 0
    - path: 2980589309
      attribute: 304273561
      script: {fileID: -765806418, guid: f5f67c52d1564df4a8936ccd202a3bd8, type: 3}
      classID: 114
      customType: 0
      isPPtrCurve: 0
    - path: 2009182958
      attribute: 3063383489
      script: {fileID: -765806418, guid: f5f67c52d1564df4a8936ccd202a3bd8, type: 3}
      classID: 114
      customType: 0
      isPPtrCurve: 0
    pptrCurveMapping: []
  m_AnimationClipSettings:
    serializedVersion: 2
    m_StartTime: 0
    m_StopTime: .25
    m_OrientationOffsetY: 0
    m_Level: 0
    m_CycleOffset: 0
    m_LoopTime: 0
    m_LoopBlend: 0
    m_LoopBlendOrientation: 0
    m_LoopBlendPositionY: 0
    m_LoopBlendPositionXZ: 0
    m_KeepOriginalOrientation: 0
    m_KeepOriginalPositionY: 1
    m_KeepOriginalPositionXZ: 0
    m_HeightFromFeet: 0
    m_Mirror: 0
  m_EditorCurves:
  - curve:
      serializedVersion: 2
      m_Curve:
      - time: 0
        value: 0
        inSlope: -.0399780273
        outSlope: -.0399780273
        tangentMode: 10
      - time: .25
        value: -.00999450684
        inSlope: -.0399780273
        outSlope: -.0399780273
        tangentMode: 10
      m_PreInfinity: 2
      m_PostInfinity: 2
    attribute: m_AnchoredPosition.y
    path: 
    classID: 224
    script: {fileID: 0}
  - curve:
      serializedVersion: 2
      m_Curve:
      - time: 0
        value: -7.62939999e-06
        inSlope: -.0799255371
        outSlope: -.0799255371
        tangentMode: 10
      - time: .25
        value: -.0199890137
        inSlope: -.0799255371
        outSlope: -.0799255371
        tangentMode: 10
      m_PreInfinity: 2
      m_PostInfinity: 2
    attribute: m_SizeDelta.y
    path: 
    classID: 224
    script: {fileID: 0}
  - curve:
      serializedVersion: 2
      m_Curve:
      - time: 0
        value: .171000004
        inSlope: 3.31599998
        outSlope: 3.31599998
        tangentMode: 10
      - time: .25
        value: 1
        inSlope: 3.31599998
        outSlope: 3.31599998
        tangentMode: 10
      m_PreInfinity: 2
      m_PostInfinity: 2
    attribute: m_AnchorMax.y
    path: 
    classID: 224
    script: {fileID: 0}
  - curve:
      serializedVersion: 2
      m_Curve:
      - time: 0
        value: 1
        inSlope: 0
        outSlope: 0
        tangentMode: 10
      - time: .25
        value: 1
        inSlope: 0
        outSlope: 0
        tangentMode: 10
      m_PreInfinity: 2
      m_PostInfinity: 2
    attribute: m_AnchorMax.x
    path: 
    classID: 224
    script: {fileID: 0}
  - curve:
      serializedVersion: 2
      m_Curve:
      - time: 0
        value: 0
        inSlope: 0
        outSlope: 0
        tangentMode: 10
      - time: .25
        value: 0
        inSlope: 0
        outSlope: 0
        tangentMode: 10
      m_PreInfinity: 2
      m_PostInfinity: 2
    attribute: m_AnchoredPosition.x
    path: 
    classID: 224
    script: {fileID: 0}
  - curve:
      serializedVersion: 2
      m_Curve:
      - time: 0
        value: 0
        inSlope: 0
        outSlope: 0
        tangentMode: 10
      - time: .25
        value: 0
        inSlope: 0
        outSlope: 0
        tangentMode: 10
      m_PreInfinity: 2
      m_PostInfinity: 2
    attribute: m_SizeDelta.x
    path: 
    classID: 224
    script: {fileID: 0}
  - curve:
      serializedVersion: 2
      m_Curve:
      - time: 0
        value: 1
        inSlope: 0
        outSlope: 0
        tangentMode: 10
      - time: .25
        value: 1
        inSlope: 0
        outSlope: 0
        tangentMode: 10
      m_PreInfinity: 2
      m_PostInfinity: 2
    attribute: m_Color.r
    path: 
    classID: 114
    script: {fileID: -765806418, guid: f5f67c52d1564df4a8936ccd202a3bd8, type: 3}
  - curve:
      serializedVersion: 2
      m_Curve:
      - time: 0
        value: 1
        inSlope: 0
        outSlope: 0
        tangentMode: 10
      - time: .25
        value: 1
        inSlope: 0
        outSlope: 0
        tangentMode: 10
      m_PreInfinity: 2
      m_PostInfinity: 2
    attribute: m_Color.g
    path: 
    classID: 114
    script: {fileID: -765806418, guid: f5f67c52d1564df4a8936ccd202a3bd8, type: 3}
  - curve:
      serializedVersion: 2
      m_Curve:
      - time: 0
        value: 1
        inSlope: 0
        outSlope: 0
        tangentMode: 10
      - time: .25
        value: 1
        inSlope: 0
        outSlope: 0
        tangentMode: 10
      m_PreInfinity: 2
      m_PostInfinity: 2
    attribute: m_Color.b
    path: 
    classID: 114
    script: {fileID: -765806418, guid: f5f67c52d1564df4a8936ccd202a3bd8, type: 3}
  - curve:
      serializedVersion: 2
      m_Curve:
      - time: 0
        value: 0
        inSlope: 2.90196085
        outSlope: 2.90196085
        tangentMode: 10
      - time: .25
        value: .725490212
        inSlope: 2.90196085
        outSlope: 2.90196085
        tangentMode: 10
      m_PreInfinity: 2
      m_PostInfinity: 2
    attribute: m_Color.a
    path: 
    classID: 114
    script: {fileID: -765806418, guid: f5f67c52d1564df4a8936ccd202a3bd8, type: 3}
  - curve:
      serializedVersion: 2
      m_Curve:
      - time: 0
        value: 100
        inSlope: 400
        outSlope: 400
        tangentMode: 10
      - time: .25
        value: 200
        inSlope: 400
        outSlope: 400
        tangentMode: 10
      m_PreInfinity: 2
      m_PostInfinity: 2
    attribute: m_CellSize.x
    path: Hunger
    classID: 114
    script: {fileID: -2095666955, guid: f5f67c52d1564df4a8936ccd202a3bd8, type: 3}
  - curve:
      serializedVersion: 2
      m_Curve:
      - time: 0
        value: 100
        inSlope: 1600
        outSlope: 1600
        tangentMode: 10
      - time: .25
        value: 500
        inSlope: 1600
        outSlope: 1600
        tangentMode: 10
      m_PreInfinity: 2
      m_PostInfinity: 2
    attribute: m_CellSize.x
    path: 
    classID: 114
    script: {fileID: -2095666955, guid: f5f67c52d1564df4a8936ccd202a3bd8, type: 3}
  - curve:
      serializedVersion: 2
      m_Curve:
      - time: 0
        value: 100
        inSlope: 400
        outSlope: 400
        tangentMode: 10
      - time: .25
        value: 200
        inSlope: 400
        outSlope: 400
        tangentMode: 10
      m_PreInfinity: 2
      m_PostInfinity: 2
    attribute: m_CellSize.y
    path: 
    classID: 114
    script: {fileID: -2095666955, guid: f5f67c52d1564df4a8936ccd202a3bd8, type: 3}
  - curve:
      serializedVersion: 2
      m_Curve:
      - time: 0
        value: 1
        inSlope: -.799999952
        outSlope: -.799999952
        tangentMode: 10
      - time: .25
        value: .800000012
        inSlope: -.799999952
        outSlope: -.799999952
        tangentMode: 10
      m_PreInfinity: 2
      m_PostInfinity: 2
    attribute: m_LocalScale.x
    path: Hunger/Hunger
    classID: 224
    script: {fileID: 0}
  - curve:
      serializedVersion: 2
      m_Curve:
      - time: 0
        value: 1
        inSlope: -1.20000005
        outSlope: -1.20000005
        tangentMode: 10
      - time: .25
        value: .699999988
        inSlope: -1.20000005
        outSlope: -1.20000005
        tangentMode: 10
      m_PreInfinity: 2
      m_PostInfinity: 2
    attribute: m_LocalScale.y
    path: Hunger/Hunger
    classID: 224
    script: {fileID: 0}
  - curve:
      serializedVersion: 2
      m_Curve:
      - time: 0
        value: 1
        inSlope: 0
        outSlope: 0
        tangentMode: 10
      - time: .25
        value: 1
        inSlope: 0
        outSlope: 0
        tangentMode: 10
      m_PreInfinity: 2
      m_PostInfinity: 2
    attribute: m_LocalScale.z
    path: Hunger/Hunger
    classID: 224
    script: {fileID: 0}
  - curve:
      serializedVersion: 2
      m_Curve:
      - time: 0
        value: 5
        inSlope: -20
        outSlope: -20
        tangentMode: 10
      - time: .25
        value: 0
        inSlope: -20
        outSlope: -20
        tangentMode: 10
      m_PreInfinity: 2
      m_PostInfinity: 2
    attribute: m_Spacing.x
    path: Hunger
    classID: 114
    script: {fileID: -2095666955, guid: f5f67c52d1564df4a8936ccd202a3bd8, type: 3}
  - curve:
      serializedVersion: 2
      m_Curve:
      - time: 0
        value: 100
        inSlope: 400
        outSlope: 400
        tangentMode: 10
      - time: .25
        value: 200
        inSlope: 400
        outSlope: 400
        tangentMode: 10
      m_PreInfinity: 2
      m_PostInfinity: 2
    attribute: m_CellSize.y
    path: Hunger
    classID: 114
    script: {fileID: -2095666955, guid: f5f67c52d1564df4a8936ccd202a3bd8, type: 3}
  - curve:
      serializedVersion: 2
      m_Curve:
      - time: 0
        value: 60
        inSlope: 560
        outSlope: 560
        tangentMode: 10
      - time: .25
        value: 200
        inSlope: 560
        outSlope: 560
        tangentMode: 10
      m_PreInfinity: 2
      m_PostInfinity: 2
    attribute: m_CellSize.x
    path: Hunger/Panel
    classID: 114
    script: {fileID: -2095666955, guid: f5f67c52d1564df4a8936ccd202a3bd8, type: 3}
  - curve:
      serializedVersion: 2
      m_Curve:
      - time: 0
        value: 15
        inSlope: 300
        outSlope: 300
        tangentMode: 10
      - time: .25
        value: 90
        inSlope: 300
        outSlope: 300
        tangentMode: 10
      m_PreInfinity: 2
      m_PostInfinity: 2
    attribute: m_CellSize.y
    path: Hunger/Panel
    classID: 114
    script: {fileID: -2095666955, guid: f5f67c52d1564df4a8936ccd202a3bd8, type: 3}
  - curve:
      serializedVersion: 2
      m_Curve:
      - time: 0
        value: 0
        inSlope: 2.90196085
        outSlope: 2.90196085
        tangentMode: 10
      - time: .25
        value: .725490212
        inSlope: 2.90196085
        outSlope: 2.90196085
        tangentMode: 10
      m_PreInfinity: 2
      m_PostInfinity: 2
    attribute: m_Color.a
    path: Hunger
    classID: 114
    script: {fileID: -765806418, guid: f5f67c52d1564df4a8936ccd202a3bd8, type: 3}
  - curve:
      serializedVersion: 2
      m_Curve:
      - time: 0
        value: 100
        inSlope: 400
        outSlope: 400
        tangentMode: 10
      - time: .25
        value: 200
        inSlope: 400
        outSlope: 400
        tangentMode: 10
      m_PreInfinity: 2
      m_PostInfinity: 2
    attribute: m_CellSize.x
    path: Sleep
    classID: 114
    script: {fileID: -2095666955, guid: f5f67c52d1564df4a8936ccd202a3bd8, type: 3}
  - curve:
      serializedVersion: 2
      m_Curve:
      - time: 0
        value: 100
        inSlope: 400
        outSlope: 400
        tangentMode: 10
      - time: .25
        value: 200
        inSlope: 400
        outSlope: 400
        tangentMode: 10
      m_PreInfinity: 2
      m_PostInfinity: 2
    attribute: m_CellSize.y
    path: Sleep
    classID: 114
    script: {fileID: -2095666955, guid: f5f67c52d1564df4a8936ccd202a3bd8, type: 3}
  - curve:
      serializedVersion: 2
      m_Curve:
      - time: 0
        value: 5
        inSlope: -20
        outSlope: -20
        tangentMode: 10
      - time: .25
        value: 0
        inSlope: -20
        outSlope: -20
        tangentMode: 10
      m_PreInfinity: 2
      m_PostInfinity: 2
    attribute: m_Spacing.x
    path: Sleep
    classID: 114
    script: {fileID: -2095666955, guid: f5f67c52d1564df4a8936ccd202a3bd8, type: 3}
  - curve:
      serializedVersion: 2
      m_Curve:
      - time: 0
        value: 1
        inSlope: -.799999952
        outSlope: -.799999952
        tangentMode: 10
      - time: .25
        value: .800000012
        inSlope: -.799999952
        outSlope: -.799999952
        tangentMode: 10
      m_PreInfinity: 2
      m_PostInfinity: 2
    attribute: m_LocalScale.x
    path: Sleep/Sleep
    classID: 224
    script: {fileID: 0}
  - curve:
      serializedVersion: 2
      m_Curve:
      - time: 0
        value: 1
        inSlope: -1.20000005
        outSlope: -1.20000005
        tangentMode: 10
      - time: .25
        value: .699999988
        inSlope: -1.20000005
        outSlope: -1.20000005
        tangentMode: 10
      m_PreInfinity: 2
      m_PostInfinity: 2
    attribute: m_LocalScale.y
    path: Sleep/Sleep
    classID: 224
    script: {fileID: 0}
  - curve:
      serializedVersion: 2
      m_Curve:
      - time: 0
        value: 1
        inSlope: 0
        outSlope: 0
        tangentMode: 10
      - time: .25
        value: 1
        inSlope: 0
        outSlope: 0
        tangentMode: 10
      m_PreInfinity: 2
      m_PostInfinity: 2
    attribute: m_LocalScale.z
    path: Sleep/Sleep
    classID: 224
    script: {fileID: 0}
  - curve:
      serializedVersion: 2
      m_Curve:
      - time: 0
        value: 60
        inSlope: 560
        outSlope: 560
        tangentMode: 10
      - time: .25
        value: 200
        inSlope: 560
        outSlope: 560
        tangentMode: 10
      m_PreInfinity: 2
      m_PostInfinity: 2
    attribute: m_CellSize.x
    path: Sleep/Panel
    classID: 114
    script: {fileID: -2095666955, guid: f5f67c52d1564df4a8936ccd202a3bd8, type: 3}
  - curve:
      serializedVersion: 2
      m_Curve:
      - time: 0
        value: 15
        inSlope: 300
        outSlope: 300
        tangentMode: 10
      - time: .25
        value: 90
        inSlope: 300
        outSlope: 300
        tangentMode: 10
      m_PreInfinity: 2
      m_PostInfinity: 2
    attribute: m_CellSize.y
    path: Sleep/Panel
    classID: 114
    script: {fileID: -2095666955, guid: f5f67c52d1564df4a8936ccd202a3bd8, type: 3}
  - curve:
      serializedVersion: 2
      m_Curve:
      - time: 0
        value: 0
        inSlope: 2.90196085
        outSlope: 2.90196085
        tangentMode: 10
      - time: .25
        value: .725490212
        inSlope: 2.90196085
        outSlope: 2.90196085
        tangentMode: 10
      m_PreInfinity: 2
      m_PostInfinity: 2
    attribute: m_Color.a
    path: Sleep
    classID: 114
    script: {fileID: -765806418, guid: f5f67c52d1564df4a8936ccd202a3bd8, type: 3}
  - curve:
      serializedVersion: 2
      m_Curve:
      - time: 0
        value: 100
        inSlope: 400
        outSlope: 400
        tangentMode: 10
      - time: .25
        value: 200
        inSlope: 400
        outSlope: 400
        tangentMode: 10
      m_PreInfinity: 2
      m_PostInfinity: 2
    attribute: m_CellSize.x
    path: Alko
    classID: 114
    script: {fileID: -2095666955, guid: f5f67c52d1564df4a8936ccd202a3bd8, type: 3}
  - curve:
      serializedVersion: 2
      m_Curve:
      - time: 0
        value: 100
        inSlope: 400
        outSlope: 400
        tangentMode: 10
      - time: .25
        value: 200
        inSlope: 400
        outSlope: 400
        tangentMode: 10
      m_PreInfinity: 2
      m_PostInfinity: 2
    attribute: m_CellSize.y
    path: Alko
    classID: 114
    script: {fileID: -2095666955, guid: f5f67c52d1564df4a8936ccd202a3bd8, type: 3}
  - curve:
      serializedVersion: 2
      m_Curve:
      - time: 0
        value: 5
        inSlope: -20
        outSlope: -20
        tangentMode: 10
      - time: .25
        value: 0
        inSlope: -20
        outSlope: -20
        tangentMode: 10
      m_PreInfinity: 2
      m_PostInfinity: 2
    attribute: m_Spacing.x
    path: Alko
    classID: 114
    script: {fileID: -2095666955, guid: f5f67c52d1564df4a8936ccd202a3bd8, type: 3}
  - curve:
      serializedVersion: 2
      m_Curve:
      - time: 0
        value: 1
        inSlope: -.799999952
        outSlope: -.799999952
        tangentMode: 10
      - time: .25
        value: .800000012
        inSlope: -.799999952
        outSlope: -.799999952
        tangentMode: 10
      m_PreInfinity: 2
      m_PostInfinity: 2
    attribute: m_LocalScale.x
    path: Alko/Alko
    classID: 224
    script: {fileID: 0}
  - curve:
      serializedVersion: 2
      m_Curve:
      - time: 0
        value: 1
        inSlope: -1.20000005
        outSlope: -1.20000005
        tangentMode: 10
      - time: .25
        value: .699999988
        inSlope: -1.20000005
        outSlope: -1.20000005
        tangentMode: 10
      m_PreInfinity: 2
      m_PostInfinity: 2
    attribute: m_LocalScale.y
    path: Alko/Alko
    classID: 224
    script: {fileID: 0}
  - curve:
      serializedVersion: 2
      m_Curve:
      - time: 0
        value: 1
        inSlope: 0
        outSlope: 0
        tangentMode: 10
      - time: .25
        value: 1
        inSlope: 0
        outSlope: 0
        tangentMode: 10
      m_PreInfinity: 2
      m_PostInfinity: 2
    attribute: m_LocalScale.z
    path: Alko/Alko
    classID: 224
    script: {fileID: 0}
  - curve:
      serializedVersion: 2
      m_Curve:
      - time: 0
        value: 60
        inSlope: 560
        outSlope: 560
        tangentMode: 10
      - time: .25
        value: 200
        inSlope: 560
        outSlope: 560
        tangentMode: 10
      m_PreInfinity: 2
      m_PostInfinity: 2
    attribute: m_CellSize.x
    path: Alko/Panel
    classID: 114
    script: {fileID: -2095666955, guid: f5f67c52d1564df4a8936ccd202a3bd8, type: 3}
  - curve:
      serializedVersion: 2
      m_Curve:
      - time: 0
        value: 15
        inSlope: 300
        outSlope: 300
        tangentMode: 10
      - time: .25
        value: 90
        inSlope: 300
        outSlope: 300
        tangentMode: 10
      m_PreInfinity: 2
      m_PostInfinity: 2
    attribute: m_CellSize.y
    path: Alko/Panel
    classID: 114
    script: {fileID: -2095666955, guid: f5f67c52d1564df4a8936ccd202a3bd8, type: 3}
  - curve:
      serializedVersion: 2
      m_Curve:
      - time: 0
        value: 0
        inSlope: 2.90196085
        outSlope: 2.90196085
        tangentMode: 10
      - time: .25
        value: .725490212
        inSlope: 2.90196085
        outSlope: 2.90196085
        tangentMode: 10
      m_PreInfinity: 2
      m_PostInfinity: 2
    attribute: m_Color.a
    path: Alko
    classID: 114
    script: {fileID: -765806418, guid: f5f67c52d1564df4a8936ccd202a3bd8, type: 3}
  - curve:
      serializedVersion: 2
      m_Curve:
      - time: 0
        value: 100
        inSlope: 400
        outSlope: 400
        tangentMode: 10
      - time: .25
        value: 200
        inSlope: 400
        outSlope: 400
        tangentMode: 10
      m_PreInfinity: 2
      m_PostInfinity: 2
    attribute: m_CellSize.x
    path: Study
    classID: 114
    script: {fileID: -2095666955, guid: f5f67c52d1564df4a8936ccd202a3bd8, type: 3}
  - curve:
      serializedVersion: 2
      m_Curve:
      - time: 0
        value: 100
        inSlope: 400
        outSlope: 400
        tangentMode: 10
      - time: .25
        value: 200
        inSlope: 400
        outSlope: 400
        tangentMode: 10
      m_PreInfinity: 2
      m_PostInfinity: 2
    attribute: m_CellSize.y
    path: Study
    classID: 114
    script: {fileID: -2095666955, guid: f5f67c52d1564df4a8936ccd202a3bd8, type: 3}
  - curve:
      serializedVersion: 2
      m_Curve:
      - time: 0
        value: 5
        inSlope: -20
        outSlope: -20
        tangentMode: 10
      - time: .25
        value: 0
        inSlope: -20
        outSlope: -20
        tangentMode: 10
      m_PreInfinity: 2
      m_PostInfinity: 2
    attribute: m_Spacing.x
    path: Study
    classID: 114
    script: {fileID: -2095666955, guid: f5f67c52d1564df4a8936ccd202a3bd8, type: 3}
  - curve:
      serializedVersion: 2
      m_Curve:
      - time: 0
        value: 1
        inSlope: -.799999952
        outSlope: -.799999952
        tangentMode: 10
      - time: .25
        value: .800000012
        inSlope: -.799999952
        outSlope: -.799999952
        tangentMode: 10
      m_PreInfinity: 2
      m_PostInfinity: 2
    attribute: m_LocalScale.x
    path: Study/Study
    classID: 224
    script: {fileID: 0}
  - curve:
      serializedVersion: 2
      m_Curve:
      - time: 0
        value: 1
        inSlope: -1.20000005
        outSlope: -1.20000005
        tangentMode: 10
      - time: .25
        value: .699999988
        inSlope: -1.20000005
        outSlope: -1.20000005
        tangentMode: 10
      m_PreInfinity: 2
      m_PostInfinity: 2
    attribute: m_LocalScale.y
    path: Study/Study
    classID: 224
    script: {fileID: 0}
  - curve:
      serializedVersion: 2
      m_Curve:
      - time: 0
        value: 1
        inSlope: 0
        outSlope: 0
        tangentMode: 10
      - time: .25
        value: 1
        inSlope: 0
        outSlope: 0
        tangentMode: 10
      m_PreInfinity: 2
      m_PostInfinity: 2
    attribute: m_LocalScale.z
    path: Study/Study
    classID: 224
    script: {fileID: 0}
  - curve:
      serializedVersion: 2
      m_Curve:
      - time: 0
        value: 60
        inSlope: 560
        outSlope: 560
        tangentMode: 10
      - time: .25
        value: 200
        inSlope: 560
        outSlope: 560
        tangentMode: 10
      m_PreInfinity: 2
      m_PostInfinity: 2
    attribute: m_CellSize.x
    path: Study/Panel
    classID: 114
    script: {fileID: -2095666955, guid: f5f67c52d1564df4a8936ccd202a3bd8, type: 3}
  - curve:
      serializedVersion: 2
      m_Curve:
      - time: 0
        value: 15
        inSlope: 300
        outSlope: 300
        tangentMode: 10
      - time: .25
        value: 90
        inSlope: 300
        outSlope: 300
        tangentMode: 10
      m_PreInfinity: 2
      m_PostInfinity: 2
    attribute: m_CellSize.y
    path: Study/Panel
    classID: 114
    script: {fileID: -2095666955, guid: f5f67c52d1564df4a8936ccd202a3bd8, type: 3}
  - curve:
      serializedVersion: 2
      m_Curve:
      - time: 0
        value: 0
        inSlope: 0
        outSlope: 0
        tangentMode: 10
      - time: .25
        value: 0
        inSlope: 0
        outSlope: 0
        tangentMode: 10
      m_PreInfinity: 2
      m_PostInfinity: 2
    attribute: m_Color.a
    path: Study/Panel
    classID: 114
    script: {fileID: -765806418, guid: f5f67c52d1564df4a8936ccd202a3bd8, type: 3}
  - curve:
      serializedVersion: 2
      m_Curve:
      - time: 0
        value: 0
        inSlope: Infinity
        outSlope: Infinity
        tangentMode: 31
      - time: .25
        value: 1
        inSlope: Infinity
        outSlope: Infinity
        tangentMode: 31
      m_PreInfinity: 2
      m_PostInfinity: 2
    attribute: m_Enabled
    path: Hunger/Panel/Text
    classID: 114
    script: {fileID: 708705254, guid: f5f67c52d1564df4a8936ccd202a3bd8, type: 3}
  - curve:
      serializedVersion: 2
      m_Curve:
      - time: 0
        value: 1
        inSlope: 0
        outSlope: 0
        tangentMode: 10
      - time: .25
        value: 1
        inSlope: 0
        outSlope: 0
        tangentMode: 10
      m_PreInfinity: 2
      m_PostInfinity: 2
    attribute: m_LocalScale.x
    path: Hunger/Panel/Text
    classID: 224
    script: {fileID: 0}
  - curve:
      serializedVersion: 2
      m_Curve:
      - time: 0
        value: .5
        inSlope: 2
        outSlope: 2
        tangentMode: 10
      - time: .25
        value: 1
        inSlope: 2
        outSlope: 2
        tangentMode: 10
      m_PreInfinity: 2
      m_PostInfinity: 2
    attribute: m_LocalScale.y
    path: Hunger/Panel/Text
    classID: 224
    script: {fileID: 0}
  - curve:
      serializedVersion: 2
      m_Curve:
      - time: 0
        value: 1
        inSlope: 0
        outSlope: 0
        tangentMode: 10
      - time: .25
        value: 1
        inSlope: 0
        outSlope: 0
        tangentMode: 10
      m_PreInfinity: 2
      m_PostInfinity: 2
    attribute: m_LocalScale.z
    path: Hunger/Panel/Text
    classID: 224
    script: {fileID: 0}
  - curve:
      serializedVersion: 2
      m_Curve:
      - time: 0
        value: 6
        inSlope: 56
        outSlope: 56
        tangentMode: 10
      - time: .25
        value: 20
        inSlope: 56
        outSlope: 56
        tangentMode: 10
      m_PreInfinity: 2
      m_PostInfinity: 2
    attribute: m_CellSize.x
    path: Hunger/Panel/Panel
    classID: 114
    script: {fileID: -2095666955, guid: f5f67c52d1564df4a8936ccd202a3bd8, type: 3}
  - curve:
      serializedVersion: 2
      m_Curve:
      - time: 0
        value: 15
        inSlope: 300
        outSlope: 300
        tangentMode: 10
      - time: .25
        value: 90
        inSlope: 300
        outSlope: 300
        tangentMode: 10
      m_PreInfinity: 2
      m_PostInfinity: 2
    attribute: m_CellSize.y
    path: Hunger/Panel/Panel
    classID: 114
    script: {fileID: -2095666955, guid: f5f67c52d1564df4a8936ccd202a3bd8, type: 3}
  - curve:
      serializedVersion: 2
      m_Curve:
      - time: 0
        value: 0
        inSlope: 4
        outSlope: 4
        tangentMode: 10
      - time: .25
        value: 1
        inSlope: 4
        outSlope: 4
        tangentMode: 10
      m_PreInfinity: 2
      m_PostInfinity: 2
    attribute: m_Alpha
    path: Hunger/Panel/Panel
    classID: 225
    script: {fileID: 0}
  - curve:
      serializedVersion: 2
      m_Curve:
      - time: 0
        value: 0
        inSlope: Infinity
        outSlope: Infinity
        tangentMode: 31
      - time: .25
        value: 1
        inSlope: Infinity
        outSlope: Infinity
        tangentMode: 31
      m_PreInfinity: 2
      m_PostInfinity: 2
    attribute: m_Enabled
    path: Sleep/Panel/Text
    classID: 114
    script: {fileID: 708705254, guid: f5f67c52d1564df4a8936ccd202a3bd8, type: 3}
  - curve:
      serializedVersion: 2
      m_Curve:
      - time: 0
        value: 6
        inSlope: 56
        outSlope: 56
        tangentMode: 10
      - time: .25
        value: 20
        inSlope: 56
        outSlope: 56
        tangentMode: 10
      m_PreInfinity: 2
      m_PostInfinity: 2
    attribute: m_CellSize.x
    path: Sleep/Panel/Panel
    classID: 114
    script: {fileID: -2095666955, guid: f5f67c52d1564df4a8936ccd202a3bd8, type: 3}
  - curve:
      serializedVersion: 2
      m_Curve:
      - time: 0
        value: 15
        inSlope: 300
        outSlope: 300
        tangentMode: 10
      - time: .25
        value: 90
        inSlope: 300
        outSlope: 300
        tangentMode: 10
      m_PreInfinity: 2
      m_PostInfinity: 2
    attribute: m_CellSize.y
    path: Sleep/Panel/Panel
    classID: 114
    script: {fileID: -2095666955, guid: f5f67c52d1564df4a8936ccd202a3bd8, type: 3}
  - curve:
      serializedVersion: 2
      m_Curve:
      - time: 0
        value: 0
        inSlope: 4
        outSlope: 4
        tangentMode: 10
      - time: .25
        value: 1
        inSlope: 4
        outSlope: 4
        tangentMode: 10
      m_PreInfinity: 2
      m_PostInfinity: 2
    attribute: m_Alpha
    path: Sleep/Panel/Panel
    classID: 225
    script: {fileID: 0}
  - curve:
      serializedVersion: 2
      m_Curve:
      - time: 0
        value: 0
        inSlope: Infinity
        outSlope: Infinity
        tangentMode: 31
      - time: .25
        value: 1
        inSlope: Infinity
        outSlope: Infinity
        tangentMode: 31
      m_PreInfinity: 2
      m_PostInfinity: 2
    attribute: m_Enabled
    path: Alko/Panel/Text
    classID: 114
    script: {fileID: 708705254, guid: f5f67c52d1564df4a8936ccd202a3bd8, type: 3}
  - curve:
      serializedVersion: 2
      m_Curve:
      - time: 0
        value: 6
        inSlope: 56
        outSlope: 56
        tangentMode: 10
      - time: .25
        value: 20
        inSlope: 56
        outSlope: 56
        tangentMode: 10
      m_PreInfinity: 2
      m_PostInfinity: 2
    attribute: m_CellSize.x
    path: Alko/Panel/Panel
    classID: 114
    script: {fileID: -2095666955, guid: f5f67c52d1564df4a8936ccd202a3bd8, type: 3}
  - curve:
      serializedVersion: 2
      m_Curve:
      - time: 0
        value: 15
        inSlope: 300
        outSlope: 300
        tangentMode: 10
      - time: .25
        value: 90
        inSlope: 300
        outSlope: 300
        tangentMode: 10
      m_PreInfinity: 2
      m_PostInfinity: 2
    attribute: m_CellSize.y
    path: Alko/Panel/Panel
    classID: 114
    script: {fileID: -2095666955, guid: f5f67c52d1564df4a8936ccd202a3bd8, type: 3}
  - curve:
      serializedVersion: 2
      m_Curve:
      - time: 0
        value: 0
        inSlope: 4
        outSlope: 4
        tangentMode: 10
      - time: .25
        value: 1
        inSlope: 4
        outSlope: 4
        tangentMode: 10
      m_PreInfinity: 2
      m_PostInfinity: 2
    attribute: m_Alpha
    path: Alko/Panel/Panel
    classID: 225
    script: {fileID: 0}
  - curve:
      serializedVersion: 2
      m_Curve:
      - time: 0
        value: 0
        inSlope: Infinity
        outSlope: Infinity
        tangentMode: 31
      - time: .25
        value: 1
        inSlope: Infinity
        outSlope: Infinity
        tangentMode: 31
      m_PreInfinity: 2
      m_PostInfinity: 2
    attribute: m_Enabled
    path: Study/Panel/Text
    classID: 114
    script: {fileID: 708705254, guid: f5f67c52d1564df4a8936ccd202a3bd8, type: 3}
  - curve:
      serializedVersion: 2
      m_Curve:
      - time: 0
        value: 6
        inSlope: 56
        outSlope: 56
        tangentMode: 10
      - time: .25
        value: 20
        inSlope: 56
        outSlope: 56
        tangentMode: 10
      m_PreInfinity: 2
      m_PostInfinity: 2
    attribute: m_CellSize.x
    path: Study/Panel/Panel
    classID: 114
    script: {fileID: -2095666955, guid: f5f67c52d1564df4a8936ccd202a3bd8, type: 3}
  - curve:
      serializedVersion: 2
      m_Curve:
      - time: 0
        value: 15
        inSlope: 300
        outSlope: 300
        tangentMode: 10
      - time: .25
        value: 90
        inSlope: 300
        outSlope: 300
        tangentMode: 10
      m_PreInfinity: 2
      m_PostInfinity: 2
    attribute: m_CellSize.y
    path: Study/Panel/Panel
    classID: 114
    script: {fileID: -2095666955, guid: f5f67c52d1564df4a8936ccd202a3bd8, type: 3}
  - curve:
      serializedVersion: 2
      m_Curve:
      - time: 0
        value: 0
        inSlope: 4
        outSlope: 4
        tangentMode: 10
      - time: .25
        value: 1
        inSlope: 4
        outSlope: 4
        tangentMode: 10
      m_PreInfinity: 2
      m_PostInfinity: 2
    attribute: m_Alpha
    path: Study/Panel/Panel
    classID: 225
    script: {fileID: 0}
  - curve:
      serializedVersion: 2
      m_Curve:
      - time: 0
        value: 0
        inSlope: 2.90196085
        outSlope: 2.90196085
        tangentMode: 10
      - time: .25
        value: .725490212
        inSlope: 2.90196085
        outSlope: 2.90196085
        tangentMode: 10
      m_PreInfinity: 2
      m_PostInfinity: 2
    attribute: m_Color.a
    path: Study
    classID: 114
    script: {fileID: -765806418, guid: f5f67c52d1564df4a8936ccd202a3bd8, type: 3}
  - curve:
      serializedVersion: 2
      m_Curve:
      - time: 0
        value: 1
        inSlope: 0
        outSlope: 0
        tangentMode: 10
      - time: .25
        value: 1
        inSlope: 0
        outSlope: 0
        tangentMode: 10
      m_PreInfinity: 2
      m_PostInfinity: 2
    attribute: m_FillAmount
    path: Hunger/Panel/Panel
    classID: 114
    script: {fileID: -765806418, guid: f5f67c52d1564df4a8936ccd202a3bd8, type: 3}
  - curve:
      serializedVersion: 2
      m_Curve:
      - time: 0
        value: 0
        inSlope: Infinity
        outSlope: Infinity
        tangentMode: 31
      - time: .25
        value: 0
        inSlope: Infinity
        outSlope: Infinity
        tangentMode: 31
      m_PreInfinity: 2
      m_PostInfinity: 2
    attribute: m_PreserveAspect
    path: Hunger/Panel/Panel
    classID: 114
    script: {fileID: -765806418, guid: f5f67c52d1564df4a8936ccd202a3bd8, type: 3}
  - curve:
      serializedVersion: 2
      m_Curve:
      - time: 0
        value: 1
        inSlope: Infinity
        outSlope: Infinity
        tangentMode: 31
      - time: .25
        value: 1
        inSlope: Infinity
        outSlope: Infinity
        tangentMode: 31
      m_PreInfinity: 2
      m_PostInfinity: 2
    attribute: m_FillCenter
    path: Hunger/Panel/Panel
    classID: 114
    script: {fileID: -765806418, guid: f5f67c52d1564df4a8936ccd202a3bd8, type: 3}
  m_EulerEditorCurves: []
  m_Events: []
