%YAML 1.1
%TAG !u! tag:unity3d.com,2011:
--- !u!74 &7400000
AnimationClip:
  m_ObjectHideFlags: 0
  m_PrefabParentObject: {fileID: 0}
  m_PrefabInternal: {fileID: 0}
  m_Name: PopOut
  serializedVersion: 4
  m_AnimationType: 2
  m_Compressed: 0
  m_UseHighQualityCurve: 1
  m_RotationCurves: []
  m_CompressedRotationCurves: []
  m_PositionCurves: []
  m_ScaleCurves:
  - curve:
      serializedVersion: 2
      m_Curve:
      - time: 0
        value: {x: .800000012, y: .699999988, z: 1}
        inSlope: {x: .705882311, y: 1.05882359, z: 0}
        outSlope: {x: .705882311, y: 1.05882359, z: 0}
        tangentMode: 809020612
      - time: .283333331
        value: {x: 1, y: 1, z: 1}
        inSlope: {x: .705882311, y: 1.05882359, z: 0}
        outSlope: {x: .705882311, y: 1.05882359, z: 0}
        tangentMode: 10
      m_PreInfinity: 2
      m_PostInfinity: 2
    path: Hunger/Hunger
  - curve:
      serializedVersion: 2
      m_Curve:
      - time: 0
        value: {x: .800000012, y: .699999988, z: 1}
        inSlope: {x: .705882311, y: 1.05882359, z: 0}
        outSlope: {x: .705882311, y: 1.05882359, z: 0}
        tangentMode: 792461348
      - time: .283333331
        value: {x: 1, y: 1, z: 1}
        inSlope: {x: .705882311, y: 1.05882359, z: 0}
        outSlope: {x: .705882311, y: 1.05882359, z: 0}
        tangentMode: 1919906913
      m_PreInfinity: 2
      m_PostInfinity: 2
    path: Sleep/Sleep
  - curve:
      serializedVersion: 2
      m_Curve:
      - time: 0
        value: {x: .699999988, y: .800000012, z: 1}
        inSlope: {x: 1.05882359, y: .705882311, z: 0}
        outSlope: {x: 1.05882359, y: .705882311, z: 0}
        tangentMode: 808518980
      - time: .283333331
        value: {x: 1, y: 1, z: 1}
        inSlope: {x: 1.05882359, y: .705882311, z: 0}
        outSlope: {x: 1.05882359, y: .705882311, z: 0}
        tangentMode: 10
      m_PreInfinity: 2
      m_PostInfinity: 2
    path: Alko/Alko
  - curve:
      serializedVersion: 2
      m_Curve:
      - time: 0
        value: {x: .800000012, y: .699999988, z: 1}
        inSlope: {x: .705882311, y: 1.05882359, z: 0}
        outSlope: {x: .705882311, y: 1.05882359, z: 0}
        tangentMode: 792461348
      - time: .283333331
        value: {x: 1, y: 1, z: 1}
        inSlope: {x: .705882311, y: 1.05882359, z: 0}
        outSlope: {x: .705882311, y: 1.05882359, z: 0}
        tangentMode: 1919906913
      m_PreInfinity: 2
      m_PostInfinity: 2
    path: Study/Study
  - curve:
      serializedVersion: 2
      m_Curve:
      - time: 0
        value: {x: 1, y: .5, z: 1}
        inSlope: {x: 0, y: 14.999999, z: 0}
        outSlope: {x: 0, y: 14.999999, z: 0}
        tangentMode: 1049694481
      - time: .0333333351
        value: {x: 1, y: 1, z: 1}
        inSlope: {x: 0, y: 14.999999, z: 0}
        outSlope: {x: 0, y: 14.999999, z: 0}
        tangentMode: 1232236404
      m_PreInfinity: 2
      m_PostInfinity: 2
    path: Hunger/Panel/Text
  m_FloatCurves:
  - curve:
      serializedVersion: 2
      m_Curve:
      - time: 0
        value: -.00999450684
        inSlope: 0
        outSlope: 0
        tangentMode: 10
      - time: .0333333351
        value: -.00999450684
        inSlope: 1.01998901
        outSlope: 1.01998901
        tangentMode: 10
      - time: .283333331
        value: .5
        inSlope: 2.03997803
        outSlope: 2.03997803
        tangentMode: 10
      m_PreInfinity: 2
      m_PostInfinity: 2
    attribute: m_AnchoredPosition.y
    path: 
    classID: 224
    script: {fileID: 0}
  - curve:
      serializedVersion: 2
      m_Curve:
      - time: -.0333333351
        value: -1
        inSlope: 29.4003277
        outSlope: 29.4003277
        tangentMode: 10
      - time: 0
        value: -.0199890137
        inSlope: 16.500145
        outSlope: 16.500145
        tangentMode: 10
      - time: .283333331
        value: 1
        inSlope: 3.59996128
        outSlope: 3.59996128
        tangentMode: 10
      m_PreInfinity: 2
      m_PostInfinity: 2
    attribute: m_SizeDelta.y
    path: 
    classID: 224
    script: {fileID: 0}
  - curve:
      serializedVersion: 2
      m_Curve:
      - time: 0
        value: .165156737
        inSlope: 25.0452976
        outSlope: 25.0452976
        tangentMode: 10
      - time: .0333333351
        value: 1
        inSlope: 10.8940773
        outSlope: 10.8940773
        tangentMode: 10
      - time: .283333331
        value: .18571429
        inSlope: -3.25714278
        outSlope: -3.25714278
        tangentMode: 10
      m_PreInfinity: 2
      m_PostInfinity: 2
    attribute: m_AnchorMax.y
    path: 
    classID: 224
    script: {fileID: 0}
  - curve:
      serializedVersion: 2
      m_Curve:
      - time: -.0333333351
        value: 0
        inSlope: 21.7647057
        outSlope: 21.7647057
        tangentMode: 10
      - time: 0
        value: .725490212
        inSlope: 9.60207558
        outSlope: 9.60207558
        tangentMode: 10
      - time: .283333331
        value: 0
        inSlope: -2.56055379
        outSlope: -2.56055379
        tangentMode: 10
      m_PreInfinity: 2
      m_PostInfinity: 2
    attribute: m_Color.a
    path: 
    classID: 114
    script: {fileID: -765806418, guid: f5f67c52d1564df4a8936ccd202a3bd8, type: 3}
  - curve:
      serializedVersion: 2
      m_Curve:
      - time: 0
        value: 1
        inSlope: 0
        outSlope: 0
        tangentMode: 10
      - time: .0333333351
        value: 1
        inSlope: 0
        outSlope: 0
        tangentMode: 10
      - time: .283333331
        value: 1
        inSlope: 0
        outSlope: 0
        tangentMode: 10
      m_PreInfinity: 2
      m_PostInfinity: 2
    attribute: m_AnchorMax.x
    path: 
    classID: 224
    script: {fileID: 0}
  - curve:
      serializedVersion: 2
      m_Curve:
      - time: 0
        value: 0
        inSlope: 0
        outSlope: 0
        tangentMode: 10
      - time: .0333333351
        value: 0
        inSlope: 0
        outSlope: 0
        tangentMode: 10
      - time: .283333331
        value: 0
        inSlope: 0
        outSlope: 0
        tangentMode: 10
      m_PreInfinity: 2
      m_PostInfinity: 2
    attribute: m_AnchoredPosition.x
    path: 
    classID: 224
    script: {fileID: 0}
  - curve:
      serializedVersion: 2
      m_Curve:
      - time: -.0333333351
        value: 0
        inSlope: 0
        outSlope: 0
        tangentMode: 10
      - time: 0
        value: 0
        inSlope: 0
        outSlope: 0
        tangentMode: 10
      - time: .283333331
        value: 0
        inSlope: 0
        outSlope: 0
        tangentMode: 10
      m_PreInfinity: 2
      m_PostInfinity: 2
    attribute: m_SizeDelta.x
    path: 
    classID: 224
    script: {fileID: 0}
  - curve:
      serializedVersion: 2
      m_Curve:
      - time: 0
        value: 100
        inSlope: 11999.999
        outSlope: 11999.999
        tangentMode: 10
      - time: .0333333351
        value: 500
        inSlope: 5199.99951
        outSlope: 5199.99951
        tangentMode: 10
      - time: .283333331
        value: 100
        inSlope: -1600
        outSlope: -1600
        tangentMode: 10
      m_PreInfinity: 2
      m_PostInfinity: 2
    attribute: m_CellSize.x
    path: 
    classID: 114
    script: {fileID: -2095666955, guid: f5f67c52d1564df4a8936ccd202a3bd8, type: 3}
  - curve:
      serializedVersion: 2
      m_Curve:
      - time: 0
        value: 100
        inSlope: 2999.99976
        outSlope: 2999.99976
        tangentMode: 10
      - time: .0333333351
        value: 200
        inSlope: 1299.99988
        outSlope: 1299.99988
        tangentMode: 10
      - time: .283333331
        value: 100
        inSlope: -400
        outSlope: -400
        tangentMode: 10
      m_PreInfinity: 2
      m_PostInfinity: 2
    attribute: m_CellSize.y
    path: 
    classID: 114
    script: {fileID: -2095666955, guid: f5f67c52d1564df4a8936ccd202a3bd8, type: 3}
  - curve:
      serializedVersion: 2
      m_Curve:
      - time: -.0333333351
        value: 100
        inSlope: 2999.99976
        outSlope: 2999.99976
        tangentMode: 10
      - time: 0
        value: 200
        inSlope: 1323.5293
        outSlope: 1323.5293
        tangentMode: 10
      - time: .283333331
        value: 100
        inSlope: -352.941193
        outSlope: -352.941193
        tangentMode: 10
      m_PreInfinity: 2
      m_PostInfinity: 2
    attribute: m_CellSize.x
    path: Hunger
    classID: 114
    script: {fileID: -2095666955, guid: f5f67c52d1564df4a8936ccd202a3bd8, type: 3}
  - curve:
      serializedVersion: 2
      m_Curve:
      - time: -.0333333351
        value: 5
        inSlope: -149.999985
        outSlope: -149.999985
        tangentMode: 10
      - time: 0
        value: 0
        inSlope: -149.999985
        outSlope: -149.999985
        tangentMode: 10
      m_PreInfinity: 2
      m_PostInfinity: 2
    attribute: m_Spacing.x
    path: Hunger
    classID: 114
    script: {fileID: -2095666955, guid: f5f67c52d1564df4a8936ccd202a3bd8, type: 3}
  - curve:
      serializedVersion: 2
      m_Curve:
      - time: 0
        value: 200
        inSlope: -352.941193
        outSlope: -352.941193
        tangentMode: 10
      - time: .283333331
        value: 100
        inSlope: -352.941193
        outSlope: -352.941193
        tangentMode: 10
      m_PreInfinity: 2
      m_PostInfinity: 2
    attribute: m_CellSize.y
    path: Hunger
    classID: 114
    script: {fileID: -2095666955, guid: f5f67c52d1564df4a8936ccd202a3bd8, type: 3}
  - curve:
      serializedVersion: 2
      m_Curve:
      - time: 0
        value: 200
        inSlope: 0
        outSlope: 0
        tangentMode: 10
      m_PreInfinity: 2
      m_PostInfinity: 2
    attribute: m_CellSize.x
    path: Hunger/Panel
    classID: 114
    script: {fileID: -2095666955, guid: f5f67c52d1564df4a8936ccd202a3bd8, type: 3}
  - curve:
      serializedVersion: 2
      m_Curve:
      - time: 0
        value: 100
        inSlope: 0
        outSlope: 0
        tangentMode: 10
      m_PreInfinity: 2
      m_PostInfinity: 2
    attribute: m_CellSize.y
    path: Hunger/Panel
    classID: 114
    script: {fileID: -2095666955, guid: f5f67c52d1564df4a8936ccd202a3bd8, type: 3}
  - curve:
      serializedVersion: 2
      m_Curve:
      - time: 0
        value: .725490212
        inSlope: -2.56055379
        outSlope: -2.56055379
        tangentMode: 10
      - time: .283333331
        value: 0
        inSlope: -2.56055379
        outSlope: -2.56055379
        tangentMode: 10
      m_PreInfinity: 2
      m_PostInfinity: 2
    attribute: m_Color.a
    path: Hunger
    classID: 114
    script: {fileID: -765806418, guid: f5f67c52d1564df4a8936ccd202a3bd8, type: 3}
  - curve:
      serializedVersion: 2
      m_Curve:
      - time: 0
        value: 200
        inSlope: -352.941193
        outSlope: -352.941193
        tangentMode: 10
      - time: .283333331
        value: 100
        inSlope: -352.941193
        outSlope: -352.941193
        tangentMode: 10
      m_PreInfinity: 2
      m_PostInfinity: 2
    attribute: m_CellSize.x
    path: Sleep
    classID: 114
    script: {fileID: -2095666955, guid: f5f67c52d1564df4a8936ccd202a3bd8, type: 3}
  - curve:
      serializedVersion: 2
      m_Curve:
      - time: 0
        value: 200
        inSlope: -352.941193
        outSlope: -352.941193
        tangentMode: 10
      - time: .283333331
        value: 100
        inSlope: -352.941193
        outSlope: -352.941193
        tangentMode: 10
      m_PreInfinity: 2
      m_PostInfinity: 2
    attribute: m_CellSize.y
    path: Sleep
    classID: 114
    script: {fileID: -2095666955, guid: f5f67c52d1564df4a8936ccd202a3bd8, type: 3}
  - curve:
      serializedVersion: 2
      m_Curve:
      - time: 0
        value: 0
        inSlope: 0
        outSlope: 0
        tangentMode: 10
      m_PreInfinity: 2
      m_PostInfinity: 2
    attribute: m_Spacing.x
    path: Sleep
    classID: 114
    script: {fileID: -2095666955, guid: f5f67c52d1564df4a8936ccd202a3bd8, type: 3}
  - curve:
      serializedVersion: 2
      m_Curve:
      - time: 0
        value: 200
        inSlope: 0
        outSlope: 0
        tangentMode: 10
      m_PreInfinity: 2
      m_PostInfinity: 2
    attribute: m_CellSize.x
    path: Sleep/Panel
    classID: 114
    script: {fileID: -2095666955, guid: f5f67c52d1564df4a8936ccd202a3bd8, type: 3}
  - curve:
      serializedVersion: 2
      m_Curve:
      - time: 0
        value: 100
        inSlope: 0
        outSlope: 0
        tangentMode: 10
      m_PreInfinity: 2
      m_PostInfinity: 2
    attribute: m_CellSize.y
    path: Sleep/Panel
    classID: 114
    script: {fileID: -2095666955, guid: f5f67c52d1564df4a8936ccd202a3bd8, type: 3}
  - curve:
      serializedVersion: 2
      m_Curve:
      - time: 0
        value: .725490212
        inSlope: -2.56055379
        outSlope: -2.56055379
        tangentMode: 10
      - time: .283333331
        value: 0
        inSlope: -2.56055379
        outSlope: -2.56055379
        tangentMode: 10
      m_PreInfinity: 2
      m_PostInfinity: 2
    attribute: m_Color.a
    path: Sleep
    classID: 114
    script: {fileID: -765806418, guid: f5f67c52d1564df4a8936ccd202a3bd8, type: 3}
  - curve:
      serializedVersion: 2
      m_Curve:
      - time: 0
        value: 200
        inSlope: -352.941193
        outSlope: -352.941193
        tangentMode: 10
      - time: .283333331
        value: 100
        inSlope: -352.941193
        outSlope: -352.941193
        tangentMode: 10
      m_PreInfinity: 2
      m_PostInfinity: 2
    attribute: m_CellSize.x
    path: Alko
    classID: 114
    script: {fileID: -2095666955, guid: f5f67c52d1564df4a8936ccd202a3bd8, type: 3}
  - curve:
      serializedVersion: 2
      m_Curve:
      - time: 0
        value: 200
        inSlope: -352.941193
        outSlope: -352.941193
        tangentMode: 10
      - time: .283333331
        value: 100
        inSlope: -352.941193
        outSlope: -352.941193
        tangentMode: 10
      m_PreInfinity: 2
      m_PostInfinity: 2
    attribute: m_CellSize.y
    path: Alko
    classID: 114
    script: {fileID: -2095666955, guid: f5f67c52d1564df4a8936ccd202a3bd8, type: 3}
  - curve:
      serializedVersion: 2
      m_Curve:
      - time: 0
        value: 0
        inSlope: 0
        outSlope: 0
        tangentMode: 10
      m_PreInfinity: 2
      m_PostInfinity: 2
    attribute: m_Spacing.x
    path: Alko
    classID: 114
    script: {fileID: -2095666955, guid: f5f67c52d1564df4a8936ccd202a3bd8, type: 3}
  - curve:
      serializedVersion: 2
      m_Curve:
      - time: 0
        value: 200
        inSlope: 0
        outSlope: 0
        tangentMode: 10
      m_PreInfinity: 2
      m_PostInfinity: 2
    attribute: m_CellSize.x
    path: Alko/Panel
    classID: 114
    script: {fileID: -2095666955, guid: f5f67c52d1564df4a8936ccd202a3bd8, type: 3}
  - curve:
      serializedVersion: 2
      m_Curve:
      - time: 0
        value: 100
        inSlope: 0
        outSlope: 0
        tangentMode: 10
      m_PreInfinity: 2
      m_PostInfinity: 2
    attribute: m_CellSize.y
    path: Alko/Panel
    classID: 114
    script: {fileID: -2095666955, guid: f5f67c52d1564df4a8936ccd202a3bd8, type: 3}
  - curve:
      serializedVersion: 2
      m_Curve:
      - time: 0
        value: .725490212
        inSlope: -2.56055379
        outSlope: -2.56055379
        tangentMode: 10
      - time: .283333331
        value: 0
        inSlope: -2.56055379
        outSlope: -2.56055379
        tangentMode: 10
      m_PreInfinity: 2
      m_PostInfinity: 2
    attribute: m_Color.a
    path: Alko
    classID: 114
    script: {fileID: -765806418, guid: f5f67c52d1564df4a8936ccd202a3bd8, type: 3}
  - curve:
      serializedVersion: 2
      m_Curve:
      - time: 0
        value: 200
        inSlope: -352.941193
        outSlope: -352.941193
        tangentMode: 10
      - time: .283333331
        value: 100
        inSlope: -352.941193
        outSlope: -352.941193
        tangentMode: 10
      m_PreInfinity: 2
      m_PostInfinity: 2
    attribute: m_CellSize.x
    path: Study
    classID: 114
    script: {fileID: -2095666955, guid: f5f67c52d1564df4a8936ccd202a3bd8, type: 3}
  - curve:
      serializedVersion: 2
      m_Curve:
      - time: 0
        value: 200
        inSlope: -352.941193
        outSlope: -352.941193
        tangentMode: 10
      - time: .283333331
        value: 100
        inSlope: -352.941193
        outSlope: -352.941193
        tangentMode: 10
      m_PreInfinity: 2
      m_PostInfinity: 2
    attribute: m_CellSize.y
    path: Study
    classID: 114
    script: {fileID: -2095666955, guid: f5f67c52d1564df4a8936ccd202a3bd8, type: 3}
  - curve:
      serializedVersion: 2
      m_Curve:
      - time: 0
        value: 0
        inSlope: 0
        outSlope: 0
        tangentMode: 10
      m_PreInfinity: 2
      m_PostInfinity: 2
    attribute: m_Spacing.x
    path: Study
    classID: 114
    script: {fileID: -2095666955, guid: f5f67c52d1564df4a8936ccd202a3bd8, type: 3}
  - curve:
      serializedVersion: 2
      m_Curve:
      - time: 0
        value: 200
        inSlope: 0
        outSlope: 0
        tangentMode: 10
      m_PreInfinity: 2
      m_PostInfinity: 2
    attribute: m_CellSize.x
    path: Study/Panel
    classID: 114
    script: {fileID: -2095666955, guid: f5f67c52d1564df4a8936ccd202a3bd8, type: 3}
  - curve:
      serializedVersion: 2
      m_Curve:
      - time: 0
        value: 100
        inSlope: 0
        outSlope: 0
        tangentMode: 10
      m_PreInfinity: 2
      m_PostInfinity: 2
    attribute: m_CellSize.y
    path: Study/Panel
    classID: 114
    script: {fileID: -2095666955, guid: f5f67c52d1564df4a8936ccd202a3bd8, type: 3}
  - curve:
      serializedVersion: 2
      m_Curve:
      - time: 0
        value: .725490212
        inSlope: -2.56055379
        outSlope: -2.56055379
        tangentMode: 10
      - time: .283333331
        value: 0
        inSlope: -2.56055379
        outSlope: -2.56055379
        tangentMode: 10
      m_PreInfinity: 2
      m_PostInfinity: 2
    attribute: m_Color.a
    path: Study
    classID: 114
    script: {fileID: -765806418, guid: f5f67c52d1564df4a8936ccd202a3bd8, type: 3}
  - curve:
      serializedVersion: 2
      m_Curve:
      - time: 0
        value: 0
        inSlope: Infinity
        outSlope: Infinity
        tangentMode: 31
      - time: .0333333351
        value: 1
        inSlope: Infinity
        outSlope: Infinity
        tangentMode: 31
      - time: .283333331
        value: 0
        inSlope: Infinity
        outSlope: Infinity
        tangentMode: 31
      m_PreInfinity: 2
      m_PostInfinity: 2
    attribute: m_Enabled
    path: Hunger/Panel/Text
    classID: 114
    script: {fileID: 708705254, guid: f5f67c52d1564df4a8936ccd202a3bd8, type: 3}
  - curve:
      serializedVersion: 2
      m_Curve:
      - time: 0
        value: 0
        inSlope: 29.9999981
        outSlope: 29.9999981
        tangentMode: 10
      - time: .0333333351
        value: 1
        inSlope: 12.999999
        outSlope: 12.999999
        tangentMode: 10
      - time: .283333331
        value: 0
        inSlope: -4
        outSlope: -4
        tangentMode: 10
      m_PreInfinity: 2
      m_PostInfinity: 2
    attribute: m_Alpha
    path: Hunger/Panel/Panel
    classID: 225
    script: {fileID: 0}
  - curve:
      serializedVersion: 2
      m_Curve:
      - time: 0
        value: 0
        inSlope: Infinity
        outSlope: Infinity
        tangentMode: 31
      - time: .0333333351
        value: 1
        inSlope: Infinity
        outSlope: Infinity
        tangentMode: 31
      - time: .283333331
        value: 0
        inSlope: Infinity
        outSlope: Infinity
        tangentMode: 31
      m_PreInfinity: 2
      m_PostInfinity: 2
    attribute: m_Enabled
    path: Sleep/Panel/Text
    classID: 114
    script: {fileID: 708705254, guid: f5f67c52d1564df4a8936ccd202a3bd8, type: 3}
  - curve:
      serializedVersion: 2
      m_Curve:
      - time: 0
        value: 0
        inSlope: 29.9999981
        outSlope: 29.9999981
        tangentMode: 10
      - time: .0333333351
        value: 1
        inSlope: 12.999999
        outSlope: 12.999999
        tangentMode: 10
      - time: .283333331
        value: 0
        inSlope: -4
        outSlope: -4
        tangentMode: 10
      m_PreInfinity: 2
      m_PostInfinity: 2
    attribute: m_Alpha
    path: Sleep/Panel/Panel
    classID: 225
    script: {fileID: 0}
  - curve:
      serializedVersion: 2
      m_Curve:
      - time: 0
        value: 0
        inSlope: Infinity
        outSlope: Infinity
        tangentMode: 31
      - time: .0333333351
        value: 1
        inSlope: Infinity
        outSlope: Infinity
        tangentMode: 31
      - time: .283333331
        value: 0
        inSlope: Infinity
        outSlope: Infinity
        tangentMode: 31
      m_PreInfinity: 2
      m_PostInfinity: 2
    attribute: m_Enabled
    path: Alko/Panel/Text
    classID: 114
    script: {fileID: 708705254, guid: f5f67c52d1564df4a8936ccd202a3bd8, type: 3}
  - curve:
      serializedVersion: 2
      m_Curve:
      - time: 0
        value: 0
        inSlope: 29.9999981
        outSlope: 29.9999981
        tangentMode: 10
      - time: .0333333351
        value: 1
        inSlope: 12.999999
        outSlope: 12.999999
        tangentMode: 10
      - time: .283333331
        value: 0
        inSlope: -4
        outSlope: -4
        tangentMode: 10
      m_PreInfinity: 2
      m_PostInfinity: 2
    attribute: m_Alpha
    path: Alko/Panel/Panel
    classID: 225
    script: {fileID: 0}
  - curve:
      serializedVersion: 2
      m_Curve:
      - time: 0
        value: 0
        inSlope: Infinity
        outSlope: Infinity
        tangentMode: 31
      - time: .0333333351
        value: 1
        inSlope: Infinity
        outSlope: Infinity
        tangentMode: 31
      - time: .283333331
        value: 0
        inSlope: Infinity
        outSlope: Infinity
        tangentMode: 31
      m_PreInfinity: 2
      m_PostInfinity: 2
    attribute: m_Enabled
    path: Study/Panel/Text
    classID: 114
    script: {fileID: 708705254, guid: f5f67c52d1564df4a8936ccd202a3bd8, type: 3}
  - curve:
      serializedVersion: 2
      m_Curve:
      - time: 0
        value: 0
        inSlope: 29.9999981
        outSlope: 29.9999981
        tangentMode: 10
      - time: .0333333351
        value: 1
        inSlope: 12.999999
        outSlope: 12.999999
        tangentMode: 10
      - time: .283333331
        value: 0
        inSlope: -4
        outSlope: -4
        tangentMode: 10
      m_PreInfinity: 2
      m_PostInfinity: 2
    attribute: m_Alpha
    path: Study/Panel/Panel
    classID: 225
    script: {fileID: 0}
  m_PPtrCurves: []
  m_SampleRate: 60
  m_WrapMode: 0
  m_Bounds:
    m_Center: {x: 0, y: 0, z: 0}
    m_Extent: {x: 0, y: 0, z: 0}
  m_ClipBindingConstant:
    genericBindings:
    - path: 1176993341
      attribute: 3
      script: {fileID: 0}
      classID: 4
      customType: 0
      isPPtrCurve: 0
    - path: 3720214910
      attribute: 3
      script: {fileID: 0}
      classID: 4
      customType: 0
      isPPtrCurve: 0
    - path: 2722588898
      attribute: 3
      script: {fileID: 0}
      classID: 4
      customType: 0
      isPPtrCurve: 0
    - path: 4118440635
      attribute: 3
      script: {fileID: 0}
      classID: 4
      customType: 0
      isPPtrCurve: 0
    - path: 933995237
      attribute: 3
      script: {fileID: 0}
      classID: 4
      customType: 0
      isPPtrCurve: 0
    - path: 0
      attribute: 538195251
      script: {fileID: 0}
      classID: 224
      customType: 0
      isPPtrCurve: 0
    - path: 0
      attribute: 38095219
      script: {fileID: 0}
      classID: 224
      customType: 0
      isPPtrCurve: 0
    - path: 0
      attribute: 3600656472
      script: {fileID: 0}
      classID: 224
      customType: 0
      isPPtrCurve: 0
    - path: 0
      attribute: 304273561
      script: {fileID: -765806418, guid: f5f67c52d1564df4a8936ccd202a3bd8, type: 3}
      classID: 114
      customType: 0
      isPPtrCurve: 0
    - path: 0
      attribute: 2402991922
      script: {fileID: -2095666955, guid: f5f67c52d1564df4a8936ccd202a3bd8, type: 3}
      classID: 114
      customType: 0
      isPPtrCurve: 0
    - path: 0
      attribute: 4164784036
      script: {fileID: -2095666955, guid: f5f67c52d1564df4a8936ccd202a3bd8, type: 3}
      classID: 114
      customType: 0
      isPPtrCurve: 0
    - path: 1394316410
      attribute: 2402991922
      script: {fileID: -2095666955, guid: f5f67c52d1564df4a8936ccd202a3bd8, type: 3}
      classID: 114
      customType: 0
      isPPtrCurve: 0
    - path: 1394316410
      attribute: 2876037403
      script: {fileID: -2095666955, guid: f5f67c52d1564df4a8936ccd202a3bd8, type: 3}
      classID: 114
      customType: 0
      isPPtrCurve: 0
    - path: 1394316410
      attribute: 4164784036
      script: {fileID: -2095666955, guid: f5f67c52d1564df4a8936ccd202a3bd8, type: 3}
      classID: 114
      customType: 0
      isPPtrCurve: 0
    - path: 1394316410
      attribute: 304273561
      script: {fileID: -765806418, guid: f5f67c52d1564df4a8936ccd202a3bd8, type: 3}
      classID: 114
      customType: 0
      isPPtrCurve: 0
    - path: 3472027048
      attribute: 2402991922
      script: {fileID: -2095666955, guid: f5f67c52d1564df4a8936ccd202a3bd8, type: 3}
      classID: 114
      customType: 0
      isPPtrCurve: 0
    - path: 3472027048
      attribute: 4164784036
      script: {fileID: -2095666955, guid: f5f67c52d1564df4a8936ccd202a3bd8, type: 3}
      classID: 114
      customType: 0
      isPPtrCurve: 0
    - path: 3472027048
      attribute: 304273561
      script: {fileID: -765806418, guid: f5f67c52d1564df4a8936ccd202a3bd8, type: 3}
      classID: 114
      customType: 0
      isPPtrCurve: 0
    - path: 405085349
      attribute: 2402991922
      script: {fileID: -2095666955, guid: f5f67c52d1564df4a8936ccd202a3bd8, type: 3}
      classID: 114
      customType: 0
      isPPtrCurve: 0
    - path: 405085349
      attribute: 4164784036
      script: {fileID: -2095666955, guid: f5f67c52d1564df4a8936ccd202a3bd8, type: 3}
      classID: 114
      customType: 0
      isPPtrCurve: 0
    - path: 405085349
      attribute: 304273561
      script: {fileID: -765806418, guid: f5f67c52d1564df4a8936ccd202a3bd8, type: 3}
      classID: 114
      customType: 0
      isPPtrCurve: 0
    - path: 666810445
      attribute: 2402991922
      script: {fileID: -2095666955, guid: f5f67c52d1564df4a8936ccd202a3bd8, type: 3}
      classID: 114
      customType: 0
      isPPtrCurve: 0
    - path: 666810445
      attribute: 4164784036
      script: {fileID: -2095666955, guid: f5f67c52d1564df4a8936ccd202a3bd8, type: 3}
      classID: 114
      customType: 0
      isPPtrCurve: 0
    - path: 666810445
      attribute: 304273561
      script: {fileID: -765806418, guid: f5f67c52d1564df4a8936ccd202a3bd8, type: 3}
      classID: 114
      customType: 0
      isPPtrCurve: 0
    - path: 933995237
      attribute: 3305885265
      script: {fileID: 708705254, guid: f5f67c52d1564df4a8936ccd202a3bd8, type: 3}
      classID: 114
      customType: 24
      isPPtrCurve: 0
    - path: 2009182958
      attribute: 1574349066
      script: {fileID: 0}
      classID: 225
      customType: 0
      isPPtrCurve: 0
    - path: 1221905245
      attribute: 3305885265
      script: {fileID: 708705254, guid: f5f67c52d1564df4a8936ccd202a3bd8, type: 3}
      classID: 114
      customType: 24
      isPPtrCurve: 0
    - path: 2986669625
      attribute: 1574349066
      script: {fileID: 0}
      classID: 225
      customType: 0
      isPPtrCurve: 0
    - path: 3436851862
      attribute: 3305885265
      script: {fileID: 708705254, guid: f5f67c52d1564df4a8936ccd202a3bd8, type: 3}
      classID: 114
      customType: 24
      isPPtrCurve: 0
    - path: 3191268344
      attribute: 1574349066
      script: {fileID: 0}
      classID: 225
      customType: 0
      isPPtrCurve: 0
    - path: 3853666285
      attribute: 3305885265
      script: {fileID: 708705254, guid: f5f67c52d1564df4a8936ccd202a3bd8, type: 3}
      classID: 114
      customType: 24
      isPPtrCurve: 0
    - path: 2043159353
      attribute: 1574349066
      script: {fileID: 0}
      classID: 225
      customType: 0
      isPPtrCurve: 0
    - path: 0
      attribute: 2711263438
      script: {fileID: 0}
      classID: 224
      customType: 0
      isPPtrCurve: 0
    - path: 0
      attribute: 1460864421
      script: {fileID: 0}
      classID: 224
      customType: 0
      isPPtrCurve: 0
    - path: 0
      attribute: 1967290853
      script: {fileID: 0}
      classID: 224
      customType: 0
      isPPtrCurve: 0
    - path: 2242638422
      attribute: 2402991922
      script: {fileID: -2095666955, guid: f5f67c52d1564df4a8936ccd202a3bd8, type: 3}
      classID: 114
      customType: 0
      isPPtrCurve: 0
    - path: 2242638422
      attribute: 4164784036
      script: {fileID: -2095666955, guid: f5f67c52d1564df4a8936ccd202a3bd8, type: 3}
      classID: 114
      customType: 0
      isPPtrCurve: 0
    - path: 3472027048
      attribute: 2876037403
      script: {fileID: -2095666955, guid: f5f67c52d1564df4a8936ccd202a3bd8, type: 3}
      classID: 114
      customType: 0
      isPPtrCurve: 0
    - path: 1881401565
      attribute: 2402991922
      script: {fileID: -2095666955, guid: f5f67c52d1564df4a8936ccd202a3bd8, type: 3}
      classID: 114
      customType: 0
      isPPtrCurve: 0
    - path: 1881401565
      attribute: 4164784036
      script: {fileID: -2095666955, guid: f5f67c52d1564df4a8936ccd202a3bd8, type: 3}
      classID: 114
      customType: 0
      isPPtrCurve: 0
    - path: 405085349
      attribute: 2876037403
      script: {fileID: -2095666955, guid: f5f67c52d1564df4a8936ccd202a3bd8, type: 3}
      classID: 114
      customType: 0
      isPPtrCurve: 0
    - path: 2339261004
      attribute: 2402991922
      script: {fileID: -2095666955, guid: f5f67c52d1564df4a8936ccd202a3bd8, type: 3}
      classID: 114
      customType: 0
      isPPtrCurve: 0
    - path: 2339261004
      attribute: 4164784036
      script: {fileID: -2095666955, guid: f5f67c52d1564df4a8936ccd202a3bd8, type: 3}
      classID: 114
      customType: 0
      isPPtrCurve: 0
    - path: 666810445
      attribute: 2876037403
      script: {fileID: -2095666955, guid: f5f67c52d1564df4a8936ccd202a3bd8, type: 3}
      classID: 114
      customType: 0
      isPPtrCurve: 0
    - path: 2980589309
      attribute: 2402991922
      script: {fileID: -2095666955, guid: f5f67c52d1564df4a8936ccd202a3bd8, type: 3}
      classID: 114
      customType: 0
      isPPtrCurve: 0
    - path: 2980589309
      attribute: 4164784036
      script: {fileID: -2095666955, guid: f5f67c52d1564df4a8936ccd202a3bd8, type: 3}
      classID: 114
      customType: 0
      isPPtrCurve: 0
    pptrCurveMapping: []
  m_AnimationClipSettings:
    serializedVersion: 2
    m_StartTime: 0
    m_StopTime: .283333331
    m_OrientationOffsetY: 0
    m_Level: 0
    m_CycleOffset: 0
    m_LoopTime: 0
    m_LoopBlend: 0
    m_LoopBlendOrientation: 0
    m_LoopBlendPositionY: 0
    m_LoopBlendPositionXZ: 0
    m_KeepOriginalOrientation: 0
    m_KeepOriginalPositionY: 1
    m_KeepOriginalPositionXZ: 0
    m_HeightFromFeet: 0
    m_Mirror: 0
  m_EditorCurves:
  - curve:
      serializedVersion: 2
      m_Curve:
      - time: 0
        value: -.00999450684
        inSlope: 0
        outSlope: 0
        tangentMode: 10
      - time: .0333333351
        value: -.00999450684
        inSlope: 1.01998901
        outSlope: 1.01998901
        tangentMode: 10
      - time: .283333331
        value: .5
        inSlope: 2.03997803
        outSlope: 2.03997803
        tangentMode: 10
      m_PreInfinity: 2
      m_PostInfinity: 2
    attribute: m_AnchoredPosition.y
    path: 
    classID: 224
    script: {fileID: 0}
  - curve:
      serializedVersion: 2
      m_Curve:
      - time: -.0333333351
        value: -1
        inSlope: 29.4003277
        outSlope: 29.4003277
        tangentMode: 10
      - time: 0
        value: -.0199890137
        inSlope: 16.500145
        outSlope: 16.500145
        tangentMode: 10
      - time: .283333331
        value: 1
        inSlope: 3.59996128
        outSlope: 3.59996128
        tangentMode: 10
      m_PreInfinity: 2
      m_PostInfinity: 2
    attribute: m_SizeDelta.y
    path: 
    classID: 224
    script: {fileID: 0}
  - curve:
      serializedVersion: 2
      m_Curve:
      - time: 0
        value: .165156737
        inSlope: 25.0452976
        outSlope: 25.0452976
        tangentMode: 10
      - time: .0333333351
        value: 1
        inSlope: 10.8940773
        outSlope: 10.8940773
        tangentMode: 10
      - time: .283333331
        value: .18571429
        inSlope: -3.25714278
        outSlope: -3.25714278
        tangentMode: 10
      m_PreInfinity: 2
      m_PostInfinity: 2
    attribute: m_AnchorMax.y
    path: 
    classID: 224
    script: {fileID: 0}
  - curve:
      serializedVersion: 2
      m_Curve:
      - time: -.0333333351
        value: 0
        inSlope: 21.7647057
        outSlope: 21.7647057
        tangentMode: 10
      - time: 0
        value: .725490212
        inSlope: 9.60207558
        outSlope: 9.60207558
        tangentMode: 10
      - time: .283333331
        value: 0
        inSlope: -2.56055379
        outSlope: -2.56055379
        tangentMode: 10
      m_PreInfinity: 2
      m_PostInfinity: 2
    attribute: m_Color.a
    path: 
    classID: 114
    script: {fileID: -765806418, guid: f5f67c52d1564df4a8936ccd202a3bd8, type: 3}
  - curve:
      serializedVersion: 2
      m_Curve:
      - time: 0
        value: 1
        inSlope: 0
        outSlope: 0
        tangentMode: 10
      - time: .0333333351
        value: 1
        inSlope: 0
        outSlope: 0
        tangentMode: 10
      - time: .283333331
        value: 1
        inSlope: 0
        outSlope: 0
        tangentMode: 10
      m_PreInfinity: 2
      m_PostInfinity: 2
    attribute: m_AnchorMax.x
    path: 
    classID: 224
    script: {fileID: 0}
  - curve:
      serializedVersion: 2
      m_Curve:
      - time: 0
        value: 0
        inSlope: 0
        outSlope: 0
        tangentMode: 10
      - time: .0333333351
        value: 0
        inSlope: 0
        outSlope: 0
        tangentMode: 10
      - time: .283333331
        value: 0
        inSlope: 0
        outSlope: 0
        tangentMode: 10
      m_PreInfinity: 2
      m_PostInfinity: 2
    attribute: m_AnchoredPosition.x
    path: 
    classID: 224
    script: {fileID: 0}
  - curve:
      serializedVersion: 2
      m_Curve:
      - time: -.0333333351
        value: 0
        inSlope: 0
        outSlope: 0
        tangentMode: 10
      - time: 0
        value: 0
        inSlope: 0
        outSlope: 0
        tangentMode: 10
      - time: .283333331
        value: 0
        inSlope: 0
        outSlope: 0
        tangentMode: 10
      m_PreInfinity: 2
      m_PostInfinity: 2
    attribute: m_SizeDelta.x
    path: 
    classID: 224
    script: {fileID: 0}
  - curve:
      serializedVersion: 2
      m_Curve:
      - time: 0
        value: 100
        inSlope: 11999.999
        outSlope: 11999.999
        tangentMode: 10
      - time: .0333333351
        value: 500
        inSlope: 5199.99951
        outSlope: 5199.99951
        tangentMode: 10
      - time: .283333331
        value: 100
        inSlope: -1600
        outSlope: -1600
        tangentMode: 10
      m_PreInfinity: 2
      m_PostInfinity: 2
    attribute: m_CellSize.x
    path: 
    classID: 114
    script: {fileID: -2095666955, guid: f5f67c52d1564df4a8936ccd202a3bd8, type: 3}
  - curve:
      serializedVersion: 2
      m_Curve:
      - time: 0
        value: 100
        inSlope: 2999.99976
        outSlope: 2999.99976
        tangentMode: 10
      - time: .0333333351
        value: 200
        inSlope: 1299.99988
        outSlope: 1299.99988
        tangentMode: 10
      - time: .283333331
        value: 100
        inSlope: -400
        outSlope: -400
        tangentMode: 10
      m_PreInfinity: 2
      m_PostInfinity: 2
    attribute: m_CellSize.y
    path: 
    classID: 114
    script: {fileID: -2095666955, guid: f5f67c52d1564df4a8936ccd202a3bd8, type: 3}
  - curve:
      serializedVersion: 2
      m_Curve:
      - time: -.0333333351
        value: 100
        inSlope: 2999.99976
        outSlope: 2999.99976
        tangentMode: 10
      - time: 0
        value: 200
        inSlope: 1323.5293
        outSlope: 1323.5293
        tangentMode: 10
      - time: .283333331
        value: 100
        inSlope: -352.941193
        outSlope: -352.941193
        tangentMode: 10
      m_PreInfinity: 2
      m_PostInfinity: 2
    attribute: m_CellSize.x
    path: Hunger
    classID: 114
    script: {fileID: -2095666955, guid: f5f67c52d1564df4a8936ccd202a3bd8, type: 3}
  - curve:
      serializedVersion: 2
      m_Curve:
      - time: -.0333333351
        value: 5
        inSlope: -149.999985
        outSlope: -149.999985
        tangentMode: 10
      - time: 0
        value: 0
        inSlope: -149.999985
        outSlope: -149.999985
        tangentMode: 10
      m_PreInfinity: 2
      m_PostInfinity: 2
    attribute: m_Spacing.x
    path: Hunger
    classID: 114
    script: {fileID: -2095666955, guid: f5f67c52d1564df4a8936ccd202a3bd8, type: 3}
  - curve:
      serializedVersion: 2
      m_Curve:
      - time: 0
        value: 200
        inSlope: -352.941193
        outSlope: -352.941193
        tangentMode: 10
      - time: .283333331
        value: 100
        inSlope: -352.941193
        outSlope: -352.941193
        tangentMode: 10
      m_PreInfinity: 2
      m_PostInfinity: 2
    attribute: m_CellSize.y
    path: Hunger
    classID: 114
    script: {fileID: -2095666955, guid: f5f67c52d1564df4a8936ccd202a3bd8, type: 3}
  - curve:
      serializedVersion: 2
      m_Curve:
      - time: 0
        value: .800000012
        inSlope: .705882311
        outSlope: .705882311
        tangentMode: 10
      - time: .283333331
        value: 1
        inSlope: .705882311
        outSlope: .705882311
        tangentMode: 10
      m_PreInfinity: 2
      m_PostInfinity: 2
    attribute: m_LocalScale.x
    path: Hunger/Hunger
    classID: 224
    script: {fileID: 0}
  - curve:
      serializedVersion: 2
      m_Curve:
      - time: 0
        value: .699999988
        inSlope: 1.05882359
        outSlope: 1.05882359
        tangentMode: 10
      - time: .283333331
        value: 1
        inSlope: 1.05882359
        outSlope: 1.05882359
        tangentMode: 10
      m_PreInfinity: 2
      m_PostInfinity: 2
    attribute: m_LocalScale.y
    path: Hunger/Hunger
    classID: 224
    script: {fileID: 0}
  - curve:
      serializedVersion: 2
      m_Curve:
      - time: 0
        value: 1
        inSlope: 0
        outSlope: 0
        tangentMode: 10
      - time: .283333331
        value: 1
        inSlope: 0
        outSlope: 0
        tangentMode: 10
      m_PreInfinity: 2
      m_PostInfinity: 2
    attribute: m_LocalScale.z
    path: Hunger/Hunger
    classID: 224
    script: {fileID: 0}
  - curve:
      serializedVersion: 2
      m_Curve:
      - time: 0
        value: 200
        inSlope: 0
        outSlope: 0
        tangentMode: 10
      m_PreInfinity: 2
      m_PostInfinity: 2
    attribute: m_CellSize.x
    path: Hunger/Panel
    classID: 114
    script: {fileID: -2095666955, guid: f5f67c52d1564df4a8936ccd202a3bd8, type: 3}
  - curve:
      serializedVersion: 2
      m_Curve:
      - time: 0
        value: 100
        inSlope: 0
        outSlope: 0
        tangentMode: 10
      m_PreInfinity: 2
      m_PostInfinity: 2
    attribute: m_CellSize.y
    path: Hunger/Panel
    classID: 114
    script: {fileID: -2095666955, guid: f5f67c52d1564df4a8936ccd202a3bd8, type: 3}
  - curve:
      serializedVersion: 2
      m_Curve:
      - time: 0
        value: .725490212
        inSlope: -2.56055379
        outSlope: -2.56055379
        tangentMode: 10
      - time: .283333331
        value: 0
        inSlope: -2.56055379
        outSlope: -2.56055379
        tangentMode: 10
      m_PreInfinity: 2
      m_PostInfinity: 2
    attribute: m_Color.a
    path: Hunger
    classID: 114
    script: {fileID: -765806418, guid: f5f67c52d1564df4a8936ccd202a3bd8, type: 3}
  - curve:
      serializedVersion: 2
      m_Curve:
      - time: 0
        value: 200
        inSlope: -352.941193
        outSlope: -352.941193
        tangentMode: 10
      - time: .283333331
        value: 100
        inSlope: -352.941193
        outSlope: -352.941193
        tangentMode: 10
      m_PreInfinity: 2
      m_PostInfinity: 2
    attribute: m_CellSize.x
    path: Sleep
    classID: 114
    script: {fileID: -2095666955, guid: f5f67c52d1564df4a8936ccd202a3bd8, type: 3}
  - curve:
      serializedVersion: 2
      m_Curve:
      - time: 0
        value: 200
        inSlope: -352.941193
        outSlope: -352.941193
        tangentMode: 10
      - time: .283333331
        value: 100
        inSlope: -352.941193
        outSlope: -352.941193
        tangentMode: 10
      m_PreInfinity: 2
      m_PostInfinity: 2
    attribute: m_CellSize.y
    path: Sleep
    classID: 114
    script: {fileID: -2095666955, guid: f5f67c52d1564df4a8936ccd202a3bd8, type: 3}
  - curve:
      serializedVersion: 2
      m_Curve:
      - time: 0
        value: 0
        inSlope: 0
        outSlope: 0
        tangentMode: 10
      m_PreInfinity: 2
      m_PostInfinity: 2
    attribute: m_Spacing.x
    path: Sleep
    classID: 114
    script: {fileID: -2095666955, guid: f5f67c52d1564df4a8936ccd202a3bd8, type: 3}
  - curve:
      serializedVersion: 2
      m_Curve:
      - time: 0
        value: .800000012
        inSlope: .705882311
        outSlope: .705882311
        tangentMode: 10
      - time: .283333331
        value: 1
        inSlope: .705882311
        outSlope: .705882311
        tangentMode: 10
      m_PreInfinity: 2
      m_PostInfinity: 2
    attribute: m_LocalScale.x
    path: Sleep/Sleep
    classID: 224
    script: {fileID: 0}
  - curve:
      serializedVersion: 2
      m_Curve:
      - time: 0
        value: .699999988
        inSlope: 1.05882359
        outSlope: 1.05882359
        tangentMode: 10
      - time: .283333331
        value: 1
        inSlope: 1.05882359
        outSlope: 1.05882359
        tangentMode: 10
      m_PreInfinity: 2
      m_PostInfinity: 2
    attribute: m_LocalScale.y
    path: Sleep/Sleep
    classID: 224
    script: {fileID: 0}
  - curve:
      serializedVersion: 2
      m_Curve:
      - time: 0
        value: 1
        inSlope: 0
        outSlope: 0
        tangentMode: 10
      - time: .283333331
        value: 1
        inSlope: 0
        outSlope: 0
        tangentMode: 10
      m_PreInfinity: 2
      m_PostInfinity: 2
    attribute: m_LocalScale.z
    path: Sleep/Sleep
    classID: 224
    script: {fileID: 0}
  - curve:
      serializedVersion: 2
      m_Curve:
      - time: 0
        value: 200
        inSlope: 0
        outSlope: 0
        tangentMode: 10
      m_PreInfinity: 2
      m_PostInfinity: 2
    attribute: m_CellSize.x
    path: Sleep/Panel
    classID: 114
    script: {fileID: -2095666955, guid: f5f67c52d1564df4a8936ccd202a3bd8, type: 3}
  - curve:
      serializedVersion: 2
      m_Curve:
      - time: 0
        value: 100
        inSlope: 0
        outSlope: 0
        tangentMode: 10
      m_PreInfinity: 2
      m_PostInfinity: 2
    attribute: m_CellSize.y
    path: Sleep/Panel
    classID: 114
    script: {fileID: -2095666955, guid: f5f67c52d1564df4a8936ccd202a3bd8, type: 3}
  - curve:
      serializedVersion: 2
      m_Curve:
      - time: 0
        value: .725490212
        inSlope: -2.56055379
        outSlope: -2.56055379
        tangentMode: 10
      - time: .283333331
        value: 0
        inSlope: -2.56055379
        outSlope: -2.56055379
        tangentMode: 10
      m_PreInfinity: 2
      m_PostInfinity: 2
    attribute: m_Color.a
    path: Sleep
    classID: 114
    script: {fileID: -765806418, guid: f5f67c52d1564df4a8936ccd202a3bd8, type: 3}
  - curve:
      serializedVersion: 2
      m_Curve:
      - time: 0
        value: 200
        inSlope: -352.941193
        outSlope: -352.941193
        tangentMode: 10
      - time: .283333331
        value: 100
        inSlope: -352.941193
        outSlope: -352.941193
        tangentMode: 10
      m_PreInfinity: 2
      m_PostInfinity: 2
    attribute: m_CellSize.x
    path: Alko
    classID: 114
    script: {fileID: -2095666955, guid: f5f67c52d1564df4a8936ccd202a3bd8, type: 3}
  - curve:
      serializedVersion: 2
      m_Curve:
      - time: 0
        value: 200
        inSlope: -352.941193
        outSlope: -352.941193
        tangentMode: 10
      - time: .283333331
        value: 100
        inSlope: -352.941193
        outSlope: -352.941193
        tangentMode: 10
      m_PreInfinity: 2
      m_PostInfinity: 2
    attribute: m_CellSize.y
    path: Alko
    classID: 114
    script: {fileID: -2095666955, guid: f5f67c52d1564df4a8936ccd202a3bd8, type: 3}
  - curve:
      serializedVersion: 2
      m_Curve:
      - time: 0
        value: 0
        inSlope: 0
        outSlope: 0
        tangentMode: 10
      m_PreInfinity: 2
      m_PostInfinity: 2
    attribute: m_Spacing.x
    path: Alko
    classID: 114
    script: {fileID: -2095666955, guid: f5f67c52d1564df4a8936ccd202a3bd8, type: 3}
  - curve:
      serializedVersion: 2
      m_Curve:
      - time: 0
        value: .699999988
        inSlope: 1.05882359
        outSlope: 1.05882359
        tangentMode: 10
      - time: .283333331
        value: 1
        inSlope: 1.05882359
        outSlope: 1.05882359
        tangentMode: 10
      m_PreInfinity: 2
      m_PostInfinity: 2
    attribute: m_LocalScale.x
    path: Alko/Alko
    classID: 224
    script: {fileID: 0}
  - curve:
      serializedVersion: 2
      m_Curve:
      - time: 0
        value: .800000012
        inSlope: .705882311
        outSlope: .705882311
        tangentMode: 10
      - time: .283333331
        value: 1
        inSlope: .705882311
        outSlope: .705882311
        tangentMode: 10
      m_PreInfinity: 2
      m_PostInfinity: 2
    attribute: m_LocalScale.y
    path: Alko/Alko
    classID: 224
    script: {fileID: 0}
  - curve:
      serializedVersion: 2
      m_Curve:
      - time: 0
        value: 1
        inSlope: 0
        outSlope: 0
        tangentMode: 10
      - time: .283333331
        value: 1
        inSlope: 0
        outSlope: 0
        tangentMode: 10
      m_PreInfinity: 2
      m_PostInfinity: 2
    attribute: m_LocalScale.z
    path: Alko/Alko
    classID: 224
    script: {fileID: 0}
  - curve:
      serializedVersion: 2
      m_Curve:
      - time: 0
        value: 200
        inSlope: 0
        outSlope: 0
        tangentMode: 10
      m_PreInfinity: 2
      m_PostInfinity: 2
    attribute: m_CellSize.x
    path: Alko/Panel
    classID: 114
    script: {fileID: -2095666955, guid: f5f67c52d1564df4a8936ccd202a3bd8, type: 3}
  - curve:
      serializedVersion: 2
      m_Curve:
      - time: 0
        value: 100
        inSlope: 0
        outSlope: 0
        tangentMode: 10
      m_PreInfinity: 2
      m_PostInfinity: 2
    attribute: m_CellSize.y
    path: Alko/Panel
    classID: 114
    script: {fileID: -2095666955, guid: f5f67c52d1564df4a8936ccd202a3bd8, type: 3}
  - curve:
      serializedVersion: 2
      m_Curve:
      - time: 0
        value: .725490212
        inSlope: -2.56055379
        outSlope: -2.56055379
        tangentMode: 10
      - time: .283333331
        value: 0
        inSlope: -2.56055379
        outSlope: -2.56055379
        tangentMode: 10
      m_PreInfinity: 2
      m_PostInfinity: 2
    attribute: m_Color.a
    path: Alko
    classID: 114
    script: {fileID: -765806418, guid: f5f67c52d1564df4a8936ccd202a3bd8, type: 3}
  - curve:
      serializedVersion: 2
      m_Curve:
      - time: 0
        value: 200
        inSlope: -352.941193
        outSlope: -352.941193
        tangentMode: 10
      - time: .283333331
        value: 100
        inSlope: -352.941193
        outSlope: -352.941193
        tangentMode: 10
      m_PreInfinity: 2
      m_PostInfinity: 2
    attribute: m_CellSize.x
    path: Study
    classID: 114
    script: {fileID: -2095666955, guid: f5f67c52d1564df4a8936ccd202a3bd8, type: 3}
  - curve:
      serializedVersion: 2
      m_Curve:
      - time: 0
        value: 200
        inSlope: -352.941193
        outSlope: -352.941193
        tangentMode: 10
      - time: .283333331
        value: 100
        inSlope: -352.941193
        outSlope: -352.941193
        tangentMode: 10
      m_PreInfinity: 2
      m_PostInfinity: 2
    attribute: m_CellSize.y
    path: Study
    classID: 114
    script: {fileID: -2095666955, guid: f5f67c52d1564df4a8936ccd202a3bd8, type: 3}
  - curve:
      serializedVersion: 2
      m_Curve:
      - time: 0
        value: 0
        inSlope: 0
        outSlope: 0
        tangentMode: 10
      m_PreInfinity: 2
      m_PostInfinity: 2
    attribute: m_Spacing.x
    path: Study
    classID: 114
    script: {fileID: -2095666955, guid: f5f67c52d1564df4a8936ccd202a3bd8, type: 3}
  - curve:
      serializedVersion: 2
      m_Curve:
      - time: 0
        value: .800000012
        inSlope: .705882311
        outSlope: .705882311
        tangentMode: 10
      - time: .283333331
        value: 1
        inSlope: .705882311
        outSlope: .705882311
        tangentMode: 10
      m_PreInfinity: 2
      m_PostInfinity: 2
    attribute: m_LocalScale.x
    path: Study/Study
    classID: 224
    script: {fileID: 0}
  - curve:
      serializedVersion: 2
      m_Curve:
      - time: 0
        value: .699999988
        inSlope: 1.05882359
        outSlope: 1.05882359
        tangentMode: 10
      - time: .283333331
        value: 1
        inSlope: 1.05882359
        outSlope: 1.05882359
        tangentMode: 10
      m_PreInfinity: 2
      m_PostInfinity: 2
    attribute: m_LocalScale.y
    path: Study/Study
    classID: 224
    script: {fileID: 0}
  - curve:
      serializedVersion: 2
      m_Curve:
      - time: 0
        value: 1
        inSlope: 0
        outSlope: 0
        tangentMode: 10
      - time: .283333331
        value: 1
        inSlope: 0
        outSlope: 0
        tangentMode: 10
      m_PreInfinity: 2
      m_PostInfinity: 2
    attribute: m_LocalScale.z
    path: Study/Study
    classID: 224
    script: {fileID: 0}
  - curve:
      serializedVersion: 2
      m_Curve:
      - time: 0
        value: 200
        inSlope: 0
        outSlope: 0
        tangentMode: 10
      m_PreInfinity: 2
      m_PostInfinity: 2
    attribute: m_CellSize.x
    path: Study/Panel
    classID: 114
    script: {fileID: -2095666955, guid: f5f67c52d1564df4a8936ccd202a3bd8, type: 3}
  - curve:
      serializedVersion: 2
      m_Curve:
      - time: 0
        value: 100
        inSlope: 0
        outSlope: 0
        tangentMode: 10
      m_PreInfinity: 2
      m_PostInfinity: 2
    attribute: m_CellSize.y
    path: Study/Panel
    classID: 114
    script: {fileID: -2095666955, guid: f5f67c52d1564df4a8936ccd202a3bd8, type: 3}
  - curve:
      serializedVersion: 2
      m_Curve:
      - time: 0
        value: .725490212
        inSlope: -2.56055379
        outSlope: -2.56055379
        tangentMode: 10
      - time: .283333331
        value: 0
        inSlope: -2.56055379
        outSlope: -2.56055379
        tangentMode: 10
      m_PreInfinity: 2
      m_PostInfinity: 2
    attribute: m_Color.a
    path: Study
    classID: 114
    script: {fileID: -765806418, guid: f5f67c52d1564df4a8936ccd202a3bd8, type: 3}
  - curve:
      serializedVersion: 2
      m_Curve:
      - time: 0
        value: 0
        inSlope: Infinity
        outSlope: Infinity
        tangentMode: 31
      - time: .0333333351
        value: 1
        inSlope: Infinity
        outSlope: Infinity
        tangentMode: 31
      - time: .283333331
        value: 0
        inSlope: Infinity
        outSlope: Infinity
        tangentMode: 31
      m_PreInfinity: 2
      m_PostInfinity: 2
    attribute: m_Enabled
    path: Hunger/Panel/Text
    classID: 114
    script: {fileID: 708705254, guid: f5f67c52d1564df4a8936ccd202a3bd8, type: 3}
  - curve:
      serializedVersion: 2
      m_Curve:
      - time: 0
        value: 1
        inSlope: 0
        outSlope: 0
        tangentMode: 10
      - time: .0333333351
        value: 1
        inSlope: 0
        outSlope: 0
        tangentMode: 10
      m_PreInfinity: 2
      m_PostInfinity: 2
    attribute: m_LocalScale.x
    path: Hunger/Panel/Text
    classID: 224
    script: {fileID: 0}
  - curve:
      serializedVersion: 2
      m_Curve:
      - time: 0
        value: .5
        inSlope: 14.999999
        outSlope: 14.999999
        tangentMode: 10
      - time: .0333333351
        value: 1
        inSlope: 14.999999
        outSlope: 14.999999
        tangentMode: 10
      m_PreInfinity: 2
      m_PostInfinity: 2
    attribute: m_LocalScale.y
    path: Hunger/Panel/Text
    classID: 224
    script: {fileID: 0}
  - curve:
      serializedVersion: 2
      m_Curve:
      - time: 0
        value: 1
        inSlope: 0
        outSlope: 0
        tangentMode: 10
      - time: .0333333351
        value: 1
        inSlope: 0
        outSlope: 0
        tangentMode: 10
      m_PreInfinity: 2
      m_PostInfinity: 2
    attribute: m_LocalScale.z
    path: Hunger/Panel/Text
    classID: 224
    script: {fileID: 0}
  - curve:
      serializedVersion: 2
      m_Curve:
      - time: 0
        value: 0
        inSlope: 29.9999981
        outSlope: 29.9999981
        tangentMode: 10
      - time: .0333333351
        value: 1
        inSlope: 12.999999
        outSlope: 12.999999
        tangentMode: 10
      - time: .283333331
        value: 0
        inSlope: -4
        outSlope: -4
        tangentMode: 10
      m_PreInfinity: 2
      m_PostInfinity: 2
    attribute: m_Alpha
    path: Hunger/Panel/Panel
    classID: 225
    script: {fileID: 0}
  - curve:
      serializedVersion: 2
      m_Curve:
      - time: 0
        value: 0
        inSlope: Infinity
        outSlope: Infinity
        tangentMode: 31
      - time: .0333333351
        value: 1
        inSlope: Infinity
        outSlope: Infinity
        tangentMode: 31
      - time: .283333331
        value: 0
        inSlope: Infinity
        outSlope: Infinity
        tangentMode: 31
      m_PreInfinity: 2
      m_PostInfinity: 2
    attribute: m_Enabled
    path: Sleep/Panel/Text
    classID: 114
    script: {fileID: 708705254, guid: f5f67c52d1564df4a8936ccd202a3bd8, type: 3}
  - curve:
      serializedVersion: 2
      m_Curve:
      - time: 0
        value: 0
        inSlope: 29.9999981
        outSlope: 29.9999981
        tangentMode: 10
      - time: .0333333351
        value: 1
        inSlope: 12.999999
        outSlope: 12.999999
        tangentMode: 10
      - time: .283333331
        value: 0
        inSlope: -4
        outSlope: -4
        tangentMode: 10
      m_PreInfinity: 2
      m_PostInfinity: 2
    attribute: m_Alpha
    path: Sleep/Panel/Panel
    classID: 225
    script: {fileID: 0}
  - curve:
      serializedVersion: 2
      m_Curve:
      - time: 0
        value: 0
        inSlope: Infinity
        outSlope: Infinity
        tangentMode: 31
      - time: .0333333351
        value: 1
        inSlope: Infinity
        outSlope: Infinity
        tangentMode: 31
      - time: .283333331
        value: 0
        inSlope: Infinity
        outSlope: Infinity
        tangentMode: 31
      m_PreInfinity: 2
      m_PostInfinity: 2
    attribute: m_Enabled
    path: Alko/Panel/Text
    classID: 114
    script: {fileID: 708705254, guid: f5f67c52d1564df4a8936ccd202a3bd8, type: 3}
  - curve:
      serializedVersion: 2
      m_Curve:
      - time: 0
        value: 0
        inSlope: 29.9999981
        outSlope: 29.9999981
        tangentMode: 10
      - time: .0333333351
        value: 1
        inSlope: 12.999999
        outSlope: 12.999999
        tangentMode: 10
      - time: .283333331
        value: 0
        inSlope: -4
        outSlope: -4
        tangentMode: 10
      m_PreInfinity: 2
      m_PostInfinity: 2
    attribute: m_Alpha
    path: Alko/Panel/Panel
    classID: 225
    script: {fileID: 0}
  - curve:
      serializedVersion: 2
      m_Curve:
      - time: 0
        value: 0
        inSlope: Infinity
        outSlope: Infinity
        tangentMode: 31
      - time: .0333333351
        value: 1
        inSlope: Infinity
        outSlope: Infinity
        tangentMode: 31
      - time: .283333331
        value: 0
        inSlope: Infinity
        outSlope: Infinity
        tangentMode: 31
      m_PreInfinity: 2
      m_PostInfinity: 2
    attribute: m_Enabled
    path: Study/Panel/Text
    classID: 114
    script: {fileID: 708705254, guid: f5f67c52d1564df4a8936ccd202a3bd8, type: 3}
  - curve:
      serializedVersion: 2
      m_Curve:
      - time: 0
        value: 0
        inSlope: 29.9999981
        outSlope: 29.9999981
        tangentMode: 10
      - time: .0333333351
        value: 1
        inSlope: 12.999999
        outSlope: 12.999999
        tangentMode: 10
      - time: .283333331
        value: 0
        inSlope: -4
        outSlope: -4
        tangentMode: 10
      m_PreInfinity: 2
      m_PostInfinity: 2
    attribute: m_Alpha
    path: Study/Panel/Panel
    classID: 225
    script: {fileID: 0}
  m_EulerEditorCurves: []
  m_Events: []
