%YAML 1.1
%TAG !u! tag:unity3d.com,2011:
--- !u!74 &7400000
AnimationClip:
  m_ObjectHideFlags: 0
  m_PrefabParentObject: {fileID: 0}
  m_PrefabInternal: {fileID: 0}
  m_Name: textureAnimation
  serializedVersion: 4
  m_AnimationType: 2
  m_Compressed: 0
  m_UseHighQualityCurve: 1
  m_RotationCurves: []
  m_CompressedRotationCurves: []
  m_PositionCurves: []
  m_ScaleCurves: []
  m_FloatCurves:
  - curve:
      serializedVersion: 2
      m_Curve:
      - time: 0
        value: 1
        inSlope: 2
        outSlope: 2
        tangentMode: 10
      - time: .5
        value: 2
        inSlope: 1
        outSlope: 1
        tangentMode: 10
      - time: 3.5
        value: 2
        inSlope: -1
        outSlope: -1
        tangentMode: 10
      - time: 4
        value: 1
        inSlope: -1
        outSlope: -1
        tangentMode: 10
      - time: 4.5
        value: 1
        inSlope: 1
        outSlope: 1
        tangentMode: 10
      - time: 5
        value: 2
        inSlope: -.249999762
        outSlope: -.249999762
        tangentMode: 10
      - time: 5.4000001
        value: 1
        inSlope: -1.24999976
        outSlope: -1.24999976
        tangentMode: 10
      - time: 6
        value: 1
        inSlope: 0
        outSlope: 0
        tangentMode: 10
      m_PreInfinity: 2
      m_PostInfinity: 2
    attribute: material._Color.r
    path: 
    classID: 23
    script: {fileID: 0}
  - curve:
      serializedVersion: 2
      m_Curve:
      - time: 0
        value: 1
        inSlope: 1
        outSlope: 1
        tangentMode: 10
      - time: 1
        value: 2
        inSlope: .75
        outSlope: .75
        tangentMode: 10
      - time: 3
        value: 3
        inSlope: -1.75
        outSlope: -1.75
        tangentMode: 10
      - time: 3.5
        value: 1
        inSlope: -2
        outSlope: -2
        tangentMode: 10
      - time: 4
        value: 1
        inSlope: 1
        outSlope: 1
        tangentMode: 10
      - time: 4.5
        value: 2
        inSlope: 0
        outSlope: 0
        tangentMode: 10
      - time: 5
        value: 1
        inSlope: -1
        outSlope: -1
        tangentMode: 10
      - time: 5.4000001
        value: 1
        inSlope: 0
        outSlope: 0
        tangentMode: 10
      - time: 6
        value: 1
        inSlope: 0
        outSlope: 0
        tangentMode: 10
      m_PreInfinity: 2
      m_PostInfinity: 2
    attribute: material._Color.g
    path: 
    classID: 23
    script: {fileID: 0}
  - curve:
      serializedVersion: 2
      m_Curve:
      - time: 0
        value: 1
        inSlope: .666666687
        outSlope: .666666687
        tangentMode: 10
      - time: 1.5
        value: 2
        inSlope: -.666666627
        outSlope: -.666666627
        tangentMode: 10
      - time: 2
        value: 1
        inSlope: 0
        outSlope: 0
        tangentMode: 10
      - time: 2.5
        value: 2
        inSlope: 1.5
        outSlope: 1.5
        tangentMode: 10
      - time: 3.5
        value: 3
        inSlope: -.5
        outSlope: -.5
        tangentMode: 10
      - time: 4.5
        value: 1
        inSlope: -1
        outSlope: -1
        tangentMode: 10
      - time: 5
        value: 1
        inSlope: 1.24999976
        outSlope: 1.24999976
        tangentMode: 10
      - time: 5.4000001
        value: 2
        inSlope: .416666269
        outSlope: .416666269
        tangentMode: 10
      - time: 6
        value: 1
        inSlope: -1.66666698
        outSlope: -1.66666698
        tangentMode: 10
      m_PreInfinity: 2
      m_PostInfinity: 2
    attribute: material._Color.b
    path: 
    classID: 23
    script: {fileID: 0}
  - curve:
      serializedVersion: 2
      m_Curve:
      - time: 0
        value: 1
        inSlope: 0
        outSlope: 0
        tangentMode: 10
      - time: 6
        value: 1
        inSlope: 0
        outSlope: 0
        tangentMode: 10
      m_PreInfinity: 2
      m_PostInfinity: 2
    attribute: material._Color.a
    path: 
    classID: 23
    script: {fileID: 0}
  m_PPtrCurves: []
  m_SampleRate: 10
  m_WrapMode: 0
  m_Bounds:
    m_Center: {x: 0, y: 0, z: 0}
    m_Extent: {x: 0, y: 0, z: 0}
  m_ClipBindingConstant:
    genericBindings:
    - path: 0
      attribute: 1303350129
      script: {fileID: 0}
      classID: 23
      customType: 22
      isPPtrCurve: 0
    - path: 0
      attribute: 1571785585
      script: {fileID: 0}
      classID: 23
      customType: 22
      isPPtrCurve: 0
    - path: 0
      attribute: 1840221041
      script: {fileID: 0}
      classID: 23
      customType: 22
      isPPtrCurve: 0
    - path: 0
      attribute: 2108656497
      script: {fileID: 0}
      classID: 23
      customType: 22
      isPPtrCurve: 0
    pptrCurveMapping: []
  m_AnimationClipSettings:
    serializedVersion: 2
    m_StartTime: 0
    m_StopTime: 6
    m_OrientationOffsetY: 0
    m_Level: 0
    m_CycleOffset: 0
    m_LoopTime: 1
    m_LoopBlend: 0
    m_LoopBlendOrientation: 0
    m_LoopBlendPositionY: 0
    m_LoopBlendPositionXZ: 0
    m_KeepOriginalOrientation: 0
    m_KeepOriginalPositionY: 1
    m_KeepOriginalPositionXZ: 0
    m_HeightFromFeet: 0
    m_Mirror: 0
  m_EditorCurves:
  - curve:
      serializedVersion: 2
      m_Curve:
      - time: 0
        value: 1
        inSlope: 2
        outSlope: 2
        tangentMode: 10
      - time: .5
        value: 2
        inSlope: 1
        outSlope: 1
        tangentMode: 10
      - time: 3.5
        value: 2
        inSlope: -1
        outSlope: -1
        tangentMode: 10
      - time: 4
        value: 1
        inSlope: -1
        outSlope: -1
        tangentMode: 10
      - time: 4.5
        value: 1
        inSlope: 1
        outSlope: 1
        tangentMode: 10
      - time: 5
        value: 2
        inSlope: -.249999762
        outSlope: -.249999762
        tangentMode: 10
      - time: 5.4000001
        value: 1
        inSlope: -1.24999976
        outSlope: -1.24999976
        tangentMode: 10
      - time: 6
        value: 1
        inSlope: 0
        outSlope: 0
        tangentMode: 10
      m_PreInfinity: 2
      m_PostInfinity: 2
    attribute: material._Color.r
    path: 
    classID: 23
    script: {fileID: 0}
  - curve:
      serializedVersion: 2
      m_Curve:
      - time: 0
        value: 1
        inSlope: 1
        outSlope: 1
        tangentMode: 10
      - time: 1
        value: 2
        inSlope: .75
        outSlope: .75
        tangentMode: 10
      - time: 3
        value: 3
        inSlope: -1.75
        outSlope: -1.75
        tangentMode: 10
      - time: 3.5
        value: 1
        inSlope: -2
        outSlope: -2
        tangentMode: 10
      - time: 4
        value: 1
        inSlope: 1
        outSlope: 1
        tangentMode: 10
      - time: 4.5
        value: 2
        inSlope: 0
        outSlope: 0
        tangentMode: 10
      - time: 5
        value: 1
        inSlope: -1
        outSlope: -1
        tangentMode: 10
      - time: 5.4000001
        value: 1
        inSlope: 0
        outSlope: 0
        tangentMode: 10
      - time: 6
        value: 1
        inSlope: 0
        outSlope: 0
        tangentMode: 10
      m_PreInfinity: 2
      m_PostInfinity: 2
    attribute: material._Color.g
    path: 
    classID: 23
    script: {fileID: 0}
  - curve:
      serializedVersion: 2
      m_Curve:
      - time: 0
        value: 1
        inSlope: .666666687
        outSlope: .666666687
        tangentMode: 10
      - time: 1.5
        value: 2
        inSlope: -.666666627
        outSlope: -.666666627
        tangentMode: 10
      - time: 2
        value: 1
        inSlope: 0
        outSlope: 0
        tangentMode: 10
      - time: 2.5
        value: 2
        inSlope: 1.5
        outSlope: 1.5
        tangentMode: 10
      - time: 3.5
        value: 3
        inSlope: -.5
        outSlope: -.5
        tangentMode: 10
      - time: 4.5
        value: 1
        inSlope: -1
        outSlope: -1
        tangentMode: 10
      - time: 5
        value: 1
        inSlope: 1.24999976
        outSlope: 1.24999976
        tangentMode: 10
      - time: 5.4000001
        value: 2
        inSlope: .416666269
        outSlope: .416666269
        tangentMode: 10
      - time: 6
        value: 1
        inSlope: -1.66666698
        outSlope: -1.66666698
        tangentMode: 10
      m_PreInfinity: 2
      m_PostInfinity: 2
    attribute: material._Color.b
    path: 
    classID: 23
    script: {fileID: 0}
  - curve:
      serializedVersion: 2
      m_Curve:
      - time: 0
        value: 1
        inSlope: 0
        outSlope: 0
        tangentMode: 10
      - time: 6
        value: 1
        inSlope: 0
        outSlope: 0
        tangentMode: 10
      m_PreInfinity: 2
      m_PostInfinity: 2
    attribute: material._Color.a
    path: 
    classID: 23
    script: {fileID: 0}
  m_EulerEditorCurves: []
  m_Events: []
